sentence_id,Brontekst,predicted_labels
711-Wet_rechterlijke_organisatie,"De bevoegdheden van de procureur - generaal kunnen ,  tenzij de aard van de bevoegdheden zich daartegen verzet ,  mede worden uitgeoefend door de plaatsvervangend procureur - generaal en door advocaten - generaal . ","[('[CLS]', 'OBJ'), ('De', 'OBJ'), ('bevoegdheden', 'OBJ'), ('van', 'OBJ'), ('de', 'OBJ'), ('procureur', 'OBJ'), ('-', 'OBJ'), ('generaal', 'OBJ'), ('kunnen', 'V'), (',', 'O'), ('tenzij', 'O'), ('de', 'O'), ('aard', 'O'), ('van', 'O'), ('de', 'O'), ('bevoegdheden', 'O'), ('zich', 'O'), ('daartegen', 'O'), ('verzet', 'O'), (',', 'O'), ('mede', 'O'), ('worden', 'V'), ('uitgeoefend', 'O'), ('door', 'ACTOR'), ('de', 'ACTOR'), ('plaats', 'ACTOR'), ('##ver', 'ACTOR'), ('##van', 'ACTOR'), ('##gend', 'ACTOR'), ('procureur', 'ACTOR'), ('-', 'ACTOR'), ('generaal', 'ACTOR'), ('en', 'ACTOR'), ('door', 'ACTOR'), ('advocaten', 'ACTOR'), ('-', 'ACTOR'), ('generaal', 'ACTOR'), ('.', 'O'), ('[SEP]', 'O')]"
153-Wegenwet,"De rechtsvordering tot wijziging in de gevallen in  vermeld vervalt ,  voor zooveel zij niet steunt op feiten ,  die na de vaststelling van de betrokken bepalingen van den legger hebben plaats gevonden ,  indien zij niet is ingesteld binnen n jaar ,  nadat de bepaling van den legger ,  tegen welke men opkomt ,  bij eindbeslissing is vastgesteld of gehandhaafd . artikel 43","[('[CLS]', 'O'), ('De', 'ACTOR'), ('rechts', 'ACTOR'), ('##vordering', 'ACTOR'), ('tot', 'ACTOR'), ('wijziging', 'ACTOR'), ('in', 'ACTOR'), ('de', 'ACTOR'), ('gevallen', 'ACTOR'), ('in', 'ACTOR'), ('vermeld', 'ACTOR'), ('verval', 'V'), ('##t', 'V'), (',', 'O'), ('voor', 'O'), ('zooveel', 'O'), ('zij', 'O'), ('niet', 'O'), ('steunt', 'O'), ('op', 'O'), ('feiten', 'O'), (',', 'O'), ('die', 'O'), ('na', 'O'), ('de', 'O'), ('vaststelling', 'O'), ('van', 'O'), ('de', 'O'), ('betrokken', 'O'), ('bepaling', 'O'), ('##en', 'O'), ('van', 'O'), ('de', 'O'), ('##n', 'O'), ('leg', 'O'), ('##ger', 'O'), ('hebben', 'O'), ('plaats', 'O'), ('gevonden', 'O'), (',', 'O'), ('indien', 'O'), ('zij', 'O'), ('niet', 'O'), ('is', 'O'), ('ingesteld', 'O'), ('binnen', 'O'), ('n', 'O'), ('jaar', 'O'), (',', 'O'), ('nadat', 'O'), ('de', 'O'), ('bepaling', 'O'), ('van', 'O'), ('de', 'O'), ('##n', 'O'), ('leg', 'O'), ('##ger', 'O'), (',', 'O'), ('tegen', 'O'), ('welke', 'O'), ('men', 'O'), ('op', 'O'), ('##komt', 'O'), (',', 'O'), ('bij', 'O'), ('eind', 'O'), ('##beslissing', 'O'), ('is', 'O'), ('vastgesteld', 'O'), ('of', 'O'), ('gehandhaafd', 'O'), ('.', 'O'), ('artikel', 'O'), ('43', 'O'), ('[SEP]', 'O')]"
168-Gezondheidswet,"De Raad regelt de samenstelling ,  bevoegdheid en werkwijze van deze commissies en benoemt de leden . ","[('[CLS]', 'O'), ('De', 'ACTOR'), ('Raad', 'ACTOR'), ('regelt', 'V'), ('de', 'OBJ'), ('samenstelling', 'OBJ'), (',', 'O'), ('bevoegdheid', 'OBJ'), ('en', 'OBJ'), ('werkwijze', 'OBJ'), ('van', 'OBJ'), ('deze', 'OBJ'), ('commissie', 'OBJ'), ('##s', 'OBJ'), ('en', 'O'), ('ben', 'V'), ('##oem', 'V'), ('##t', 'V'), ('de', 'OBJ'), ('leden', 'OBJ'), ('.', 'O'), ('[SEP]', 'O')]"
232-Algemene_Ouderdomswet,"Na het overlijden van degene ,  aan wie ouderdomspensioen is toegekend ,  wordt met ingang van de dag na het overlijden ,  ouderdomspensioen in de vorm van een overlijdensuitkering uitbetaald : ","[('[CLS]', 'O'), ('Na', 'O'), ('het', 'O'), ('overlijden', 'O'), ('van', 'O'), ('degene', 'O'), (',', 'O'), ('aan', 'O'), ('wie', 'O'), ('ouderdom', 'O'), ('##spe', 'O'), ('##n', 'O'), ('##sio', 'O'), ('##en', 'O'), ('is', 'O'), ('toegekend', 'O'), (',', 'O'), ('wordt', 'O'), ('met', 'O'), ('ingang', 'O'), ('van', 'O'), ('de', 'O'), ('dag', 'O'), ('na', 'O'), ('het', 'O'), ('overlijden', 'O'), (',', 'O'), ('ouderdom', 'OBJ'), ('##spe', 'OBJ'), ('##n', 'OBJ'), ('##sio', 'OBJ'), ('##en', 'O'), ('in', 'O'), ('de', 'O'), ('vorm', 'O'), ('van', 'O'), ('een', 'O'), ('overlijden', 'O'), ('##s', 'O'), ('##uitkering', 'O'), ('uitbetaald', 'O'), (':', 'O'), ('[SEP]', 'O')]"
150-Wet_op_de_dividendbelasting_1965,"Een inhoudingsplichtige die voor de heffing van de vennootschapsbelasting is aangemerkt als beleggingsinstelling als bedoeld in  mag op de ingevolge  ,  op aangifte af te dragen belasting een vermindering toepassen wegens ten laste van hem ingehouden dividendbelasting en buitenlandse bronheffing . artikel 7 ,  vierde lidartikel 28 van de Wet op de vennootschapsbelasting 1969","[('[CLS]', 'ACTOR'), ('Een', 'ACTOR'), ('inhoud', 'ACTOR'), ('##ings', 'ACTOR'), ('##plicht', 'ACTOR'), ('##ige', 'ACTOR'), ('die', 'ACTOR'), ('voor', 'ACTOR'), ('de', 'ACTOR'), ('heffing', 'ACTOR'), ('van', 'ACTOR'), ('de', 'ACTOR'), ('vennootschap', 'ACTOR'), ('##s', 'ACTOR'), ('##belasting', 'ACTOR'), ('is', 'ACTOR'), ('aangemerkt', 'ACTOR'), ('als', 'ACTOR'), ('beleggings', 'ACTOR'), ('##instelling', 'ACTOR'), ('als', 'ACTOR'), ('bedoeld', 'ACTOR'), ('in', 'ACTOR'), ('mag', 'V'), ('op', 'O'), ('de', 'O'), ('inge', 'O'), ('##vol', 'O'), ('##ge', 'O'), (',', 'O'), ('op', 'O'), ('aangifte', 'O'), ('af', 'O'), ('te', 'O'), ('dragen', 'O'), ('belasting', 'O'), ('een', 'OBJ'), ('vermindering', 'OBJ'), ('toepassen', 'O'), ('wegens', 'O'), ('te', 'O'), ('##n', 'O'), ('last', 'O'), ('##e', 'O'), ('van', 'O'), ('hem', 'O'), ('inge', 'O'), ('##houden', 'O'), ('dividend', 'O'), ('##belasting', 'O'), ('en', 'O'), ('buitenlands', 'O'), ('##e', 'O'), ('bron', 'O'), ('##heffing', 'O'), ('.', 'O'), ('artikel', 'O'), ('7', 'O'), (',', 'O'), ('vierde', 'O'), ('lid', 'O'), ('##artikel', 'O'), ('28', 'O'), ('van', 'O'), ('de', 'O'), ('Wet', 'O'), ('op', 'O'), ('de', 'O'), ('vennootschap', 'O'), ('##s', 'O'), ('##belasting', 'O'), ('1969', 'O'), ('[SEP]', 'O')]"
590-Wet_milieubeheer,Bij algemene maatregel van bestuur kunnen regels worden gesteld met betrekking tot de wijze waarop de in het eerste lid bedoelde gegevens worden bepaald en beschreven . ,"[('[CLS]', 'O'), ('Bij', 'O'), ('algemene', 'O'), ('maatregel', 'O'), ('van', 'O'), ('bestuur', 'O'), ('kunnen', 'V'), ('regels', 'OBJ'), ('worden', 'V'), ('gesteld', 'V'), ('met', 'OBJ'), ('betrekking', 'OBJ'), ('tot', 'OBJ'), ('de', 'OBJ'), ('wijze', 'O'), ('waar', 'OBJ'), ('##op', 'OBJ'), ('de', 'OBJ'), ('in', 'OBJ'), ('het', 'OBJ'), ('eerste', 'OBJ'), ('lid', 'OBJ'), ('bedoelde', 'OBJ'), ('gegevens', 'OBJ'), ('worden', 'OBJ'), ('bepaald', 'OBJ'), ('en', 'OBJ'), ('beschreven', 'O'), ('.', 'O'), ('[SEP]', 'O')]"
84-Wet_op_het_primair onderwijs,Bij ministerile regeling kunnen nadere uitvoeringsvoorschriften worden gesteld . ,"[('[CLS]', 'O'), ('Bij', 'O'), ('minister', 'O'), ('##ile', 'O'), ('regeling', 'O'), ('kunnen', 'V'), ('nadere', 'OBJ'), ('uitvoering', 'OBJ'), ('##s', 'OBJ'), ('##voorschriften', 'OBJ'), ('worden', 'V'), ('gesteld', 'V'), ('.', 'O'), ('[SEP]', 'O')]"
246-Wet_bodembescherming,"Gedeputeerde staten kunnen zodanige termijn telkenmale voor ten hoogste een jaar verlengen indien naar hun oordeel de ernst van de verontreiniging ,  de aantasting of de gevolgen niet of niet in voldoende mate is verminderd . artikel 30","[('[CLS]', 'O'), ('Ge', 'ACTOR'), ('##de', 'ACTOR'), ('##put', 'ACTOR'), ('##eerde', 'ACTOR'), ('staten', 'ACTOR'), ('kunnen', 'V'), ('zodanig', 'OBJ'), ('##e', 'OBJ'), ('termijn', 'OBJ'), ('tel', 'O'), ('##ken', 'O'), ('##male', 'O'), ('voor', 'O'), ('te', 'O'), ('##n', 'O'), ('hoogste', 'O'), ('een', 'O'), ('jaar', 'O'), ('verlengen', 'V'), ('indien', 'O'), ('naar', 'O'), ('hun', 'O'), ('oordeel', 'O'), ('de', 'O'), ('ernst', 'O'), ('van', 'O'), ('de', 'O'), ('ver', 'O'), ('##ont', 'O'), ('##reiniging', 'O'), (',', 'O'), ('de', 'O'), ('aantast', 'O'), ('##ing', 'O'), ('of', 'O'), ('de', 'O'), ('gevolgen', 'O'), ('niet', 'O'), ('of', 'O'), ('niet', 'O'), ('in', 'O'), ('voldoende', 'O'), ('mate', 'O'), ('is', 'O'), ('verminderd', 'O'), ('.', 'O'), ('artikel', 'O'), ('30', 'O'), ('[SEP]', 'O')]"
93-Wet_op_de_Nederlandse_organisatie_voor_wetenschappelijk_onderzoek,"De raad van bestuur stelt het jaarverslag vast ,  gehoord de raad van toezicht . ","[('[CLS]', 'ACTOR'), ('De', 'ACTOR'), ('raad', 'ACTOR'), ('van', 'ACTOR'), ('bestuur', 'ACTOR'), ('stelt', 'V'), ('het', 'OBJ'), ('jaarverslag', 'OBJ'), ('vast', 'V'), (',', 'O'), ('gehoord', 'O'), ('de', 'O'), ('raad', 'O'), ('van', 'O'), ('toezicht', 'O'), ('.', 'O'), ('[SEP]', 'O')]"
205-Monumentenwet_1988,Bij algemene maatregel van bestuur kunnen met betrekking tot verantwoorde en toegankelijke opslag van monumenten en de daarbij behorende documenten en rapporten eisen worden gesteld . ,"[('[CLS]', 'O'), ('Bij', 'O'), ('algemene', 'O'), ('maatregel', 'O'), ('van', 'O'), ('bestuur', 'O'), ('kunnen', 'V'), ('met', 'O'), ('betrekking', 'O'), ('tot', 'O'), ('verantwoord', 'O'), ('##e', 'O'), ('en', 'O'), ('toegankelijk', 'O'), ('##e', 'O'), ('opslag', 'O'), ('van', 'O'), ('monumenten', 'O'), ('en', 'O'), ('de', 'O'), ('daarbij', 'O'), ('behorend', 'O'), ('##e', 'O'), ('documenten', 'O'), ('en', 'OBJ'), ('rapporten', 'O'), ('eisen', 'V'), ('worden', 'V'), ('gesteld', 'V'), ('.', 'O'), ('[SEP]', 'O')]"
478-Reglement_verkeersregels_en_verkeerstekens_1990,Onder verkeersbord C22c wordt onderbord C22c1 geplaatst . ,"[('[CLS]', 'O'), ('Onder', 'O'), ('verkeers', 'O'), ('##bord', 'O'), ('C', 'O'), ('##22', 'O'), ('##c', 'O'), ('wordt', 'V'), ('onder', 'OBJ'), ('##bord', 'OBJ'), ('C', 'OBJ'), ('##22', 'OBJ'), ('##c', 'OBJ'), ('##1', 'OBJ'), ('geplaatst', 'V'), ('.', 'O'), ('[SEP]', 'O')]"
83-Wet_openbaarheid_van_bestuur,"Met betrekking tot adviezen van een ambtelijke of gemengd samengestelde adviescommissie kan het verstrekken van informatie over de daarin opgenomen persoonlijke beleidsopvattingen plaatsvinden ,  indien het voornemen daartoe door het bestuursorgaan dat het rechtstreeks aangaat aan de leden van de adviescommissie voor de aanvang van hun werkzaamheden kenbaar is gemaakt . ","[('[CLS]', 'O'), ('Met', 'O'), ('betrekking', 'O'), ('tot', 'O'), ('adviezen', 'O'), ('van', 'O'), ('een', 'O'), ('ambtelijke', 'O'), ('of', 'O'), ('gemengd', 'O'), ('samengesteld', 'O'), ('##e', 'O'), ('advies', 'O'), ('##commissie', 'O'), ('kan', 'V'), ('het', 'OBJ'), ('verstrekken', 'OBJ'), ('van', 'OBJ'), ('informatie', 'OBJ'), ('over', 'OBJ'), ('de', 'OBJ'), ('daarin', 'OBJ'), ('opgenomen', 'OBJ'), ('persoonlijke', 'OBJ'), ('beleids', 'OBJ'), ('##op', 'OBJ'), ('##vat', 'OBJ'), ('##ting', 'OBJ'), ('##en', 'OBJ'), ('plaatsvinden', 'V'), (',', 'O'), ('indien', 'O'), ('het', 'O'), ('voornemen', 'O'), ('daartoe', 'O'), ('door', 'O'), ('het', 'O'), ('bestuurs', 'O'), ('##orgaan', 'O'), ('dat', 'O'), ('het', 'O'), ('rechtstreeks', 'O'), ('aan', 'O'), ('##gaat', 'O'), ('aan', 'O'), ('de', 'O'), ('leden', 'O'), ('van', 'O'), ('de', 'O'), ('advies', 'O'), ('##commissie', 'O'), ('voor', 'O'), ('de', 'O'), ('aanvang', 'O'), ('van', 'O'), ('hun', 'O'), ('werkzaam', 'O'), ('##heden', 'O'), ('kenbaar', 'O'), ('is', 'O'), ('gemaakt', 'O'), ('.', 'O'), ('[SEP]', 'O')]"
76-Wet_op_het_hoger_onderwijs_en_wetenschappelijk_onderzoek,"Degene die aan een in de bijlage van deze wet genoemde instelling meewerkt aan het afgeven van een getuigschrift zonder dat ten aanzien van degene die het desbetreffende examen of onderzoek met goed gevolg heeft afgelegd onderscheidenlijk heeft ondergaan ,  door het instellingsbestuur is verklaard dat het getuigschrift kan worden afgegeven ,  wordt gestraft met geldboete van de derde categorie . ","[('[CLS]', 'OBJ'), ('De', 'OBJ'), ('##gene', 'OBJ'), ('die', 'OBJ'), ('aan', 'ACTOR'), ('een', 'ACTOR'), ('in', 'ACTOR'), ('de', 'ACTOR'), ('bijlage', 'ACTOR'), ('van', 'ACTOR'), ('deze', 'ACTOR'), ('wet', 'ACTOR'), ('genoemde', 'ACTOR'), ('instelling', 'OBJ'), ('meewerkt', 'ACTOR'), ('aan', 'ACTOR'), ('het', 'ACTOR'), ('afgeven', 'OBJ'), ('van', 'ACTOR'), ('een', 'ACTOR'), ('getuig', 'OBJ'), ('##schrift', 'OBJ'), ('zonder', 'ACTOR'), ('dat', 'ACTOR'), ('te', 'REC'), ('##n', 'OBJ'), ('aanzien', 'OBJ'), ('van', 'REC'), ('degene', 'OBJ'), ('die', 'REC'), ('het', 'REC'), ('desbetreffend', 'OBJ'), ('##e', 'OBJ'), ('examen', 'OBJ'), ('of', 'ACTOR'), ('onderzoek', 'OBJ'), ('met', 'OBJ'), ('goed', 'OBJ'), ('gevolg', 'OBJ'), ('heeft', 'OBJ'), ('afgelegd', 'OBJ'), ('onderscheiden', 'OBJ'), ('##lijk', 'OBJ'), ('heeft', 'OBJ'), ('ondergaan', 'OBJ'), (',', 'O'), ('door', 'ACTOR'), ('het', 'ACTOR'), ('instelling', 'O'), ('##s', 'ACTOR'), ('##bestuur', 'O'), ('is', 'REC'), ('verklaard', 'REC'), ('dat', 'OBJ'), ('het', 'OBJ'), ('getuig', 'OBJ'), ('##schrift', 'OBJ'), ('kan', 'OBJ'), ('worden', 'OBJ'), ('afge', 'OBJ'), ('##geven', 'O'), (',', 'O'), ('wordt', 'O'), ('gestraft', 'O'), ('met', 'O'), ('geldboete', 'O'), ('van', 'O'), ('de', 'O'), ('derde', 'O'), ('categorie', 'O'), ('.', 'O'), ('[SEP]', 'O')]"
60-Wet_educatie_en_beroepsonderwijs,"Indien het bevoegd gezag van een instelling in strijd handelt met het bepaalde bij of krachtens deze wet dan wel indien de raad van toezicht een aanwijzing als bedoeld in  niet opvolgt ,  kan Onze Minister bepalen dat de rijksbijdrage ,  voorschotten daaronder begrepen ,  geheel of gedeeltelijk wordt ingehouden dan wel opgeschort . artikel3 . 1 . 5","[('[CLS]', 'O'), ('Indien', 'O'), ('het', 'O'), ('bevoegd', 'O'), ('gezag', 'O'), ('van', 'O'), ('een', 'O'), ('instelling', 'O'), ('in', 'O'), ('strijd', 'O'), ('handel', 'O'), ('##t', 'O'), ('met', 'O'), ('het', 'O'), ('bepaalde', 'O'), ('bij', 'O'), ('of', 'O'), ('krachten', 'O'), ('##s', 'O'), ('deze', 'O'), ('wet', 'O'), ('dan', 'O'), ('wel', 'O'), ('indien', 'O'), ('de', 'O'), ('raad', 'O'), ('van', 'O'), ('toezicht', 'O'), ('een', 'O'), ('aanwijzing', 'O'), ('als', 'O'), ('bedoeld', 'O'), ('in', 'O'), ('niet', 'O'), ('op', 'O'), ('##vol', 'O'), ('##g', 'O'), ('##t', 'O'), (',', 'O'), ('kan', 'V'), ('Onze', 'ACTOR'), ('Minister', 'ACTOR'), ('bepalen', 'V'), ('dat', 'OBJ'), ('de', 'OBJ'), ('rijks', 'OBJ'), ('##bijdrage', 'OBJ'), (',', 'O'), ('voor', 'OBJ'), ('##schotten', 'OBJ'), ('daaronder', 'OBJ'), ('be', 'OBJ'), ('##grepen', 'OBJ'), (',', 'O'), ('geheel', 'OBJ'), ('of', 'OBJ'), ('gedeeltelijk', 'OBJ'), ('wordt', 'OBJ'), ('inge', 'OBJ'), ('##houden', 'OBJ'), ('dan', 'OBJ'), ('wel', 'OBJ'), ('opgeschort', 'OBJ'), ('.', 'O'), ('artikel', 'O'), ('##3', 'O'), ('.', 'O'), ('1', 'O'), ('.', 'O'), ('5', 'O'), ('[SEP]', 'O')]"
20-Wet_op_bijzondere_medische_verrichtingen,Een vergunning kan onder beperkingen worden verleend . ,"[('[CLS]', 'O'), ('Een', 'OBJ'), ('vergunning', 'OBJ'), ('kan', 'V'), ('onder', 'O'), ('beperkingen', 'O'), ('worden', 'V'), ('verleend', 'V'), ('.', 'O'), ('[SEP]', 'O')]"
98-Natuurbeschermingswet_1998,"Voorzover bij de regeling het bij deze wet of bij algemene maatregel van bestuur krachtens deze wet bepaalde buiten werking worden gesteld ,  zorgt Onze Minister voor vervanging van de regeling . ","[('[CLS]', 'O'), ('Voor', 'O'), ('##zover', 'O'), ('bij', 'O'), ('de', 'O'), ('regeling', 'O'), ('het', 'O'), ('bij', 'O'), ('deze', 'O'), ('wet', 'O'), ('of', 'O'), ('bij', 'O'), ('algemene', 'O'), ('maatregel', 'O'), ('van', 'O'), ('bestuur', 'O'), ('krachten', 'O'), ('##s', 'O'), ('deze', 'O'), ('wet', 'O'), ('bepaalde', 'O'), ('buiten', 'O'), ('werking', 'O'), ('worden', 'O'), ('gesteld', 'O'), (',', 'O'), ('zorgt', 'V'), ('Onze', 'ACTOR'), ('Minister', 'ACTOR'), ('voor', 'V'), ('vervanging', 'OBJ'), ('van', 'OBJ'), ('de', 'OBJ'), ('regeling', 'OBJ'), ('.', 'O'), ('[SEP]', 'O')]"
356-Wet_op_de_jeugdzorg,"De zorgaanbieder die pleegzorg biedt stelt vast of aan de voorwaarden ,  genoemd in het eerste lid ,  is voldaan . ","[('[CLS]', 'ACTOR'), ('De', 'ACTOR'), ('zorg', 'ACTOR'), ('##aanbieder', 'ACTOR'), ('die', 'ACTOR'), ('plee', 'ACTOR'), ('##g', 'ACTOR'), ('##zorg', 'ACTOR'), ('biedt', 'ACTOR'), ('stelt', 'V'), ('vast', 'V'), ('of', 'OBJ'), ('aan', 'OBJ'), ('de', 'OBJ'), ('voorwaarden', 'OBJ'), (',', 'O'), ('genoemd', 'OBJ'), ('in', 'OBJ'), ('het', 'OBJ'), ('eerste', 'OBJ'), ('lid', 'OBJ'), (',', 'O'), ('is', 'OBJ'), ('voldaan', 'OBJ'), ('.', 'O'), ('[SEP]', 'O')]"
83-Zorgverzekeringswet,"De opzegging ,  bedoeld in het tweede of vierde lid ,  gaat in op de eerste dag van de tweede kalendermaand volgende op de dag waarop de verzekeringnemer heeft opgezegd . ","[('[CLS]', 'O'), ('De', 'OBJ'), ('op', 'OBJ'), ('##zegging', 'OBJ'), (',', 'O'), ('bedoeld', 'O'), ('in', 'O'), ('het', 'O'), ('tweede', 'O'), ('of', 'O'), ('vierde', 'O'), ('lid', 'O'), (',', 'O'), ('gaat', 'O'), ('in', 'O'), ('op', 'O'), ('de', 'O'), ('eerste', 'O'), ('dag', 'O'), ('van', 'O'), ('de', 'O'), ('tweede', 'O'), ('kalender', 'O'), ('##maand', 'O'), ('volgende', 'O'), ('op', 'O'), ('de', 'O'), ('dag', 'O'), ('waar', 'O'), ('##op', 'O'), ('de', 'O'), ('verzekering', 'O'), ('##nemer', 'O'), ('heeft', 'O'), ('opge', 'O'), ('##zeg', 'O'), ('##d', 'O'), ('.', 'O'), ('[SEP]', 'O')]"
98-Wet basisregistratie_adressen_en_gebouwen,Bij ministerile regeling kunnen regels worden gegeven omtrent de inzage in en het verstrekken van gegevens als bedoeld in het eerste lid . ,"[('[CLS]', 'O'), ('Bij', 'O'), ('minister', 'O'), ('##ile', 'O'), ('regeling', 'O'), ('kunnen', 'V'), ('regels', 'OBJ'), ('worden', 'V'), ('gegeven', 'V'), ('om', 'O'), ('##trent', 'O'), ('de', 'O'), ('inzage', 'O'), ('in', 'O'), ('en', 'O'), ('het', 'O'), ('verstrekken', 'O'), ('van', 'O'), ('gegevens', 'O'), ('als', 'O'), ('bedoeld', 'O'), ('in', 'O'), ('het', 'O'), ('eerste', 'O'), ('lid', 'O'), ('.', 'O'), ('[SEP]', 'O')]"
114-Mediawet_2008,Bij of krachtens algemene maatregel van bestuur kunnen nadere regels worden gesteld over de eisen bedoeld in het eerste lid en kunnen andere eisen voor erkenning worden gesteld . ,"[('[CLS]', 'O'), ('Bij', 'O'), ('of', 'O'), ('krachten', 'O'), ('##s', 'O'), ('algemene', 'O'), ('maatregel', 'O'), ('van', 'O'), ('bestuur', 'O'), ('kunnen', 'V'), ('nadere', 'OBJ'), ('regels', 'OBJ'), ('worden', 'V'), ('gesteld', 'V'), ('over', 'OBJ'), ('de', 'OBJ'), ('eisen', 'OBJ'), ('bedoeld', 'OBJ'), ('in', 'OBJ'), ('het', 'OBJ'), ('eerste', 'OBJ'), ('lid', 'OBJ'), ('en', 'O'), ('kunnen', 'V'), ('andere', 'OBJ'), ('eisen', 'OBJ'), ('voor', 'OBJ'), ('erkenning', 'OBJ'), ('worden', 'V'), ('gesteld', 'V'), ('.', 'O'), ('[SEP]', 'O')]"
85-Instellingswet_Autoriteit_Consument_en_Markt,"De in  ,  bedoelde ambtenaren zijn bevoegd een woning zonder toestemming van de bewoner te betreden ,  voor zover dat voor de uitoefening van de in  bedoelde bevoegdheden redelijkerwijs noodzakelijk is . artikel 12a ,  eerste lidartikel 5 : 17 van de Algemene wet bestuursrecht","[('[CLS]', 'O'), ('De', 'ACTOR'), ('in', 'ACTOR'), (',', 'O'), ('bedoelde', 'ACTOR'), ('ambtenaren', 'ACTOR'), ('zijn', 'V'), ('bevoegd', 'V'), ('een', 'OBJ'), ('woning', 'OBJ'), ('zonder', 'OBJ'), ('toestemming', 'OBJ'), ('van', 'OBJ'), ('de', 'OBJ'), ('bewoner', 'OBJ'), ('te', 'OBJ'), ('betreden', 'OBJ'), (',', 'O'), ('voor', 'O'), ('zover', 'O'), ('dat', 'O'), ('voor', 'O'), ('de', 'O'), ('uitoefen', 'O'), ('##ing', 'O'), ('van', 'O'), ('de', 'O'), ('in', 'O'), ('bedoelde', 'O'), ('bevoegdheden', 'O'), ('redelijke', 'O'), ('##r', 'O'), ('##wijs', 'O'), ('noodzakelijk', 'O'), ('is', 'O'), ('.', 'O'), ('artikel', 'O'), ('12', 'O'), ('##a', 'O'), (',', 'O'), ('eerste', 'O'), ('lid', 'O'), ('##artikel', 'O'), ('5', 'O'), (':', 'O'), ('17', 'O'), ('van', 'O'), ('de', 'O'), ('Algemene', 'O'), ('wet', 'O'), ('bestuursrecht', 'O'), ('[SEP]', 'O')]"
56-Wet_lokaal_spoor,Bij ministerile regeling kunnen regels worden gesteld ten aanzien van de methode voor het uitvoeren van een risicoanalyse en de aspecten die in ieder geval bij de risicoanalyse worden betrokken . ,"[('[CLS]', 'O'), ('Bij', 'O'), ('minister', 'O'), ('##ile', 'O'), ('regeling', 'O'), ('kunnen', 'V'), ('regels', 'OBJ'), ('worden', 'V'), ('gesteld', 'V'), ('te', 'OBJ'), ('##n', 'OBJ'), ('aanzien', 'OBJ'), ('van', 'OBJ'), ('de', 'OBJ'), ('methode', 'OBJ'), ('voor', 'OBJ'), ('het', 'OBJ'), ('uitvoeren', 'OBJ'), ('van', 'OBJ'), ('een', 'OBJ'), ('risico', 'O'), ('##analyse', 'OBJ'), ('en', 'OBJ'), ('de', 'OBJ'), ('aspecten', 'OBJ'), ('die', 'OBJ'), ('in', 'OBJ'), ('ieder', 'OBJ'), ('geval', 'OBJ'), ('bij', 'OBJ'), ('de', 'OBJ'), ('risico', 'OBJ'), ('##analyse', 'OBJ'), ('worden', 'OBJ'), ('betrokken', 'OBJ'), ('.', 'O'), ('[SEP]', 'O')]"
532-Jeugdwet,"De inlichtingen worden de betrokkene alsnog gegeven ,  zodra bedoeld nadeel niet meer te duchten is . ","[('[CLS]', 'O'), ('De', 'OBJ'), ('inlichtingen', 'OBJ'), ('worden', 'V'), ('de', 'REC'), ('betrokken', 'REC'), ('##e', 'REC'), ('als', 'O'), ('##n', 'O'), ('##og', 'O'), ('gegeven', 'V'), (',', 'O'), ('zo', 'O'), ('##dra', 'O'), ('bedoeld', 'O'), ('nadeel', 'O'), ('niet', 'O'), ('meer', 'O'), ('te', 'O'), ('du', 'O'), ('##chten', 'O'), ('is', 'O'), ('.', 'O'), ('[SEP]', 'O')]"
919-Wet_natuurbescherming,De in het eerste lid bedoelde besluiten kunnen onder voorwaarden of beperkingen worden genomen . ,"[('[CLS]', 'O'), ('De', 'OBJ'), ('in', 'OBJ'), ('het', 'OBJ'), ('eerste', 'OBJ'), ('lid', 'OBJ'), ('bedoelde', 'OBJ'), ('besluiten', 'OBJ'), ('kunnen', 'V'), ('onder', 'O'), ('voorwaarden', 'O'), ('of', 'O'), ('beperkingen', 'O'), ('worden', 'V'), ('genomen', 'V'), ('.', 'O'), ('[SEP]', 'O')]"
284-Wet_rechterlijke_organisatie,"In het jaarverslag wordt vermeld op welke wijze de werkzaamheden ten behoeve waarvan het budget ten laste van de rijksbegroting is verleend ,  zijn uitgevoerd . ","[('[CLS]', 'O'), ('In', 'O'), ('het', 'O'), ('jaarverslag', 'O'), ('wordt', 'V'), ('vermeld', 'V'), ('op', 'OBJ'), ('welke', 'OBJ'), ('wijze', 'OBJ'), ('de', 'OBJ'), ('werkzaam', 'OBJ'), ('##heden', 'OBJ'), ('te', 'OBJ'), ('##n', 'OBJ'), ('behoeve', 'OBJ'), ('waarvan', 'OBJ'), ('het', 'OBJ'), ('budget', 'OBJ'), ('te', 'OBJ'), ('##n', 'OBJ'), ('last', 'OBJ'), ('##e', 'OBJ'), ('van', 'OBJ'), ('de', 'OBJ'), ('rijks', 'OBJ'), ('##begroting', 'OBJ'), ('is', 'OBJ'), ('verleend', 'OBJ'), (',', 'O'), ('zijn', 'OBJ'), ('uitgevoerd', 'OBJ'), ('.', 'O'), ('[SEP]', 'O')]"
38-Wet_educatie_en_beroepsonderwijs,De raad van toezicht stelt de studentenraad en de ondernemingsraad van de instelling ten minste tweemaal per jaar in de gelegenheid overleg met hem te voeren . ,"[('[CLS]', 'ACTOR'), ('De', 'ACTOR'), ('raad', 'ACTOR'), ('van', 'ACTOR'), ('toezicht', 'ACTOR'), ('stelt', 'V'), ('de', 'REC'), ('studenten', 'REC'), ('##raad', 'REC'), ('en', 'REC'), ('de', 'REC'), ('onderneming', 'REC'), ('##sraad', 'REC'), ('van', 'REC'), ('de', 'REC'), ('instelling', 'REC'), ('te', 'O'), ('##n', 'O'), ('minste', 'O'), ('twee', 'O'), ('##maal', 'O'), ('per', 'O'), ('jaar', 'O'), ('in', 'V'), ('de', 'V'), ('gelegenheid', 'V'), ('overleg', 'OBJ'), ('met', 'OBJ'), ('hem', 'O'), ('te', 'OBJ'), ('voeren', 'O'), ('.', 'O'), ('[SEP]', 'O')]"
114-Wet_herverdeling_wegenbeheer,"Bij algemene maatregel van bestuur wordt de hoogte van de bijdrage vastgesteld die de gemeente in het eerste jaar waarin de overgangsdatum valt ,  moet verstrekken . ","[('[CLS]', 'O'), ('Bij', 'O'), ('algemene', 'O'), ('maatregel', 'O'), ('van', 'O'), ('bestuur', 'O'), ('wordt', 'V'), ('de', 'OBJ'), ('hoogte', 'OBJ'), ('van', 'OBJ'), ('de', 'OBJ'), ('bijdrage', 'OBJ'), ('vastgesteld', 'V'), ('die', 'OBJ'), ('de', 'OBJ'), ('gemeente', 'OBJ'), ('in', 'OBJ'), ('het', 'OBJ'), ('eerste', 'OBJ'), ('jaar', 'OBJ'), ('waarin', 'OBJ'), ('de', 'OBJ'), ('overgangs', 'OBJ'), ('##datum', 'OBJ'), ('valt', 'OBJ'), (',', 'O'), ('moet', 'OBJ'), ('verstrekken', 'OBJ'), ('.', 'O'), ('[SEP]', 'O')]"
916-Vreemdelingenwet_2000,"Indien beroep is ingesteld tegen een besluit dat een gelijke strekking heeft als een besluit dat eerder ten aanzien van de indiener van het beroepschrift is genomen ,  zal dit besluit ,  ook bij het ontbreken van nieuw gebleken feiten of veranderde omstandigheden of een relevante wijziging van het recht ,  worden beoordeeld als ware het een eerste afwijzing indien hier wegens bijzondere ,  op de individuele zaak betrekking hebbende ,  feiten en omstandigheden ,  de noodzaak toe bestaat . ","[('[CLS]', 'O'), ('Indien', 'O'), ('beroep', 'O'), ('is', 'O'), ('ingesteld', 'O'), ('tegen', 'O'), ('een', 'O'), ('besluit', 'O'), ('dat', 'O'), ('een', 'O'), ('gelijke', 'O'), ('strekking', 'O'), ('heeft', 'O'), ('als', 'O'), ('een', 'O'), ('besluit', 'O'), ('dat', 'O'), ('eerder', 'O'), ('te', 'O'), ('##n', 'O'), ('aanzien', 'O'), ('van', 'O'), ('de', 'O'), ('indien', 'O'), ('##er', 'O'), ('van', 'O'), ('het', 'O'), ('beroeps', 'O'), ('##ch', 'O'), ('##rif', 'O'), ('##t', 'O'), ('is', 'O'), ('genomen', 'O'), (',', 'O'), ('zal', 'O'), ('dit', 'OBJ'), ('besluit', 'OBJ'), (',', 'O'), ('ook', 'O'), ('bij', 'O'), ('het', 'O'), ('ontbreken', 'O'), ('van', 'O'), ('nieuw', 'O'), ('gebleken', 'O'), ('feiten', 'O'), ('of', 'O'), ('veranderde', 'O'), ('omstandigheden', 'O'), ('of', 'O'), ('een', 'O'), ('relevante', 'O'), ('wijziging', 'O'), ('van', 'O'), ('het', 'O'), ('recht', 'O'), (',', 'O'), ('worden', 'V'), ('beoordeeld', 'O'), ('als', 'O'), ('ware', 'O'), ('het', 'O'), ('een', 'O'), ('eerste', 'O'), ('afwijzing', 'O'), ('indien', 'O'), ('hier', 'O'), ('wegens', 'O'), ('bijzondere', 'O'), (',', 'O'), ('op', 'O'), ('de', 'O'), ('individuele', 'O'), ('zaak', 'O'), ('betrekking', 'O'), ('hebben', 'O'), ('##de', 'O'), (',', 'O'), ('feiten', 'O'), ('en', 'O'), ('omstandigheden', 'O'), (',', 'O'), ('de', 'O'), ('noodzaak', 'O'), ('toe', 'O'), ('bestaat', 'O'), ('.', 'O'), ('[SEP]', 'O')]"
57-Wet_beheer_rijkswaterstaatswerken,De Verkeerswet tegen lintbebouwing wordt ingetrokken . ,"[('[CLS]', 'OBJ'), ('De', 'OBJ'), ('Verkeer', 'OBJ'), ('##s', 'OBJ'), ('##wet', 'OBJ'), ('tegen', 'OBJ'), ('lint', 'OBJ'), ('##be', 'OBJ'), ('##bouw', 'OBJ'), ('##ing', 'OBJ'), ('wordt', 'V'), ('ingetrokken', 'V'), ('.', 'O'), ('[SEP]', 'O')]"
107-Rijkswet_op_het_Nederlanderschap,"Voor de verzoeker die tijdens zijn minderjarigheid is erkend of gewettigd wordt de termijn van drie jaren verminderd met de onafgebroken periode gedurende welke hij onmiddellijk voorafgaande aan zijn meerderjarigheid na de erkenning of wettiging zonder erkenning ,  verzorging en opvoeding heeft genoten van de Nederlander door wie hij is erkend of wiens kind hij door wettiging zonder erkenning is geworden . ","[('[CLS]', 'REC'), ('Voor', 'REC'), ('de', 'REC'), ('verzoek', 'REC'), ('##er', 'REC'), ('die', 'REC'), ('tijdens', 'REC'), ('zijn', 'REC'), ('minder', 'REC'), ('##jarig', 'REC'), ('##heid', 'REC'), ('is', 'REC'), ('erkend', 'REC'), ('of', 'REC'), ('gew', 'REC'), ('##etti', 'REC'), ('##g', 'REC'), ('##d', 'REC'), ('wordt', 'V'), ('de', 'OBJ'), ('termijn', 'OBJ'), ('van', 'OBJ'), ('drie', 'OBJ'), ('jaren', 'OBJ'), ('verminderd', 'V'), ('met', 'O'), ('de', 'O'), ('on', 'O'), ('##afgebroken', 'O'), ('periode', 'O'), ('ge', 'O'), ('##durende', 'O'), ('welke', 'O'), ('hij', 'REC'), ('onmiddellijk', 'REC'), ('voorafgaande', 'REC'), ('aan', 'REC'), ('zijn', 'REC'), ('meerderjarig', 'REC'), ('##heid', 'REC'), ('na', 'REC'), ('de', 'REC'), ('erkenning', 'O'), ('of', 'REC'), ('wettig', 'O'), ('##ing', 'O'), ('zonder', 'REC'), ('erkenning', 'O'), (',', 'O'), ('verzorging', 'REC'), ('en', 'REC'), ('opvoeding', 'O'), ('heeft', 'REC'), ('genoten', 'O'), ('van', 'REC'), ('de', 'REC'), ('Nederlander', 'REC'), ('door', 'REC'), ('wie', 'REC'), ('hij', 'REC'), ('is', 'REC'), ('erkend', 'REC'), ('of', 'REC'), ('wie', 'REC'), ('##n', 'REC'), ('##s', 'REC'), ('kind', 'REC'), ('hij', 'REC'), ('door', 'REC'), ('wettig', 'REC'), ('##ing', 'REC'), ('zonder', 'REC'), ('erkenning', 'REC'), ('is', 'REC'), ('geworden', 'REC'), ('.', 'O'), ('[SEP]', 'O')]"
128-Rijkswet_op_het_Nederlanderschap,"Een verzoek van de vader of moeder tot medeverlening van het Nederlanderschap aan een kind dat ten tijde van het verzoek de leeftijd van 16 jaar heeft bereikt wordt ingewilligd indien het kind in het Europese deel van Nederland ,  Aruba ,  Curaao ,  Sint Maarten of de openbare lichamen Bonaire ,  Sint Eustatius en Saba een onafgebroken periode van ten minste drie jaren onmiddellijk voorafgaand aan het verzoek toelating en hoofdverblijf en ,  sedert het tijdstip van het verzoek ,  toelating voor onbepaalde tijd en hoofdverblijf heeft . ","[('[CLS]', 'OBJ'), ('Een', 'OBJ'), ('verzoek', 'OBJ'), ('van', 'OBJ'), ('de', 'OBJ'), ('vader', 'OBJ'), ('of', 'OBJ'), ('moeder', 'OBJ'), ('tot', 'OBJ'), ('mede', 'OBJ'), ('##verlening', 'OBJ'), ('van', 'OBJ'), ('het', 'OBJ'), ('Nederlanders', 'OBJ'), ('##cha', 'OBJ'), ('##p', 'OBJ'), ('aan', 'REC'), ('een', 'REC'), ('kind', 'REC'), ('dat', 'REC'), ('te', 'REC'), ('##n', 'REC'), ('tijd', 'REC'), ('##e', 'REC'), ('van', 'REC'), ('het', 'REC'), ('verzoek', 'REC'), ('de', 'REC'), ('leeftijd', 'REC'), ('van', 'REC'), ('16', 'REC'), ('jaar', 'REC'), ('heeft', 'REC'), ('bereikt', 'REC'), ('wordt', 'V'), ('inge', 'V'), ('##willig', 'V'), ('##d', 'V'), ('indien', 'O'), ('het', 'O'), ('kind', 'O'), ('in', 'O'), ('het', 'O'), ('Europese', 'O'), ('deel', 'O'), ('van', 'O'), ('Nederland', 'O'), (',', 'O'), ('Aruba', 'O'), (',', 'O'), ('Cura', 'O'), ('##a', 'O'), ('##o', 'O'), (',', 'O'), ('Sint', 'O'), ('Maarten', 'O'), ('of', 'O'), ('de', 'O'), ('openbare', 'O'), ('li', 'O'), ('##cha', 'O'), ('##men', 'O'), ('Bon', 'O'), ('##aire', 'O'), (',', 'O'), ('Sint', 'O'), ('Eu', 'O'), ('##sta', 'O'), ('##tius', 'O'), ('en', 'O'), ('Saba', 'O'), ('een', 'O'), ('on', 'O'), ('##afgebroken', 'O'), ('periode', 'O'), ('van', 'O'), ('te', 'O'), ('##n', 'O'), ('minste', 'O'), ('drie', 'O'), ('jaren', 'O'), ('onmiddellijk', 'O'), ('voorafgaand', 'O'), ('aan', 'O'), ('het', 'O'), ('verzoek', 'O'), ('toelating', 'O'), ('en', 'O'), ('hoofd', 'O'), ('##verblijf', 'O'), ('en', 'O'), (',', 'O'), ('sedert', 'O'), ('het', 'O'), ('tijdstip', 'O'), ('van', 'O'), ('het', 'O'), ('verzoek', 'O'), (',', 'O'), ('toelating', 'O'), ('voor', 'O'), ('onbepaald', 'O'), ('##e', 'O'), ('tijd', 'O'), ('en', 'O'), ('hoofd', 'O'), ('##verblijf', 'O'), ('heeft', 'O'), ('.', 'O'), ('[SEP]', 'O')]"
15-Rijkswet_op_het_Nederlanderschap,"Het kind ,  mits het de leeftijd van 12 jaar heeft bereikt ,  en zijn wettelijke vertegenwoordiger worden op hun verzoek in de gelegenheid gesteld hun zienswijze naar voren te brengen omtrent de verkrijging of medeverkrijging ,  of verlening of medeverlening van het Nederlanderschap . ","[('[CLS]', 'O'), ('Het', 'ACTOR'), ('kind', 'ACTOR'), (',', 'O'), ('mits', 'O'), ('het', 'O'), ('de', 'O'), ('leeftijd', 'O'), ('van', 'O'), ('12', 'O'), ('jaar', 'O'), ('heeft', 'O'), ('bereikt', 'O'), (',', 'O'), ('en', 'O'), ('zijn', 'ACTOR'), ('wettelijk', 'O'), ('##e', 'O'), ('vertegenwoordig', 'O'), ('##er', 'O'), ('worden', 'O'), ('op', 'O'), ('hun', 'O'), ('verzoek', 'O'), ('in', 'V'), ('de', 'V'), ('gelegenheid', 'O'), ('gesteld', 'O'), ('hun', 'OBJ'), ('zien', 'OBJ'), ('##s', 'OBJ'), ('##wijze', 'OBJ'), ('naar', 'OBJ'), ('voren', 'O'), ('te', 'OBJ'), ('brengen', 'OBJ'), ('om', 'OBJ'), ('##trent', 'OBJ'), ('de', 'OBJ'), ('ver', 'OBJ'), ('##krijg', 'OBJ'), ('##ing', 'OBJ'), ('of', 'OBJ'), ('mede', 'OBJ'), ('##ver', 'OBJ'), ('##krijg', 'OBJ'), ('##ing', 'OBJ'), (',', 'O'), ('of', 'OBJ'), ('ver', 'OBJ'), ('##lening', 'OBJ'), ('of', 'OBJ'), ('mede', 'OBJ'), ('##verlening', 'OBJ'), ('van', 'OBJ'), ('het', 'OBJ'), ('Nederlanders', 'OBJ'), ('##cha', 'O'), ('##p', 'O'), ('.', 'O'), ('[SEP]', 'O')]"
21-Rijkswet_op_het_Nederlanderschap,"Het op het grondgebied van Nederland ,  onderscheidenlijk Aruba ,  Curaao of Sint Maarten ,  of aan boord van een in Nederland ,  Aruba ,  Curaao of Sint Maarten te boek gesteld zeeschip of luchtvaartuig ,  gevonden kind wordt aangemerkt als het kind van een Nederlander tenzij binnen vijf jaren ,  te rekenen vanaf de dag waarop het is gevonden ,  blijkt dat het kind door geboorte een vreemde nationaliteit bezit . ","[('[CLS]', 'O'), ('Het', 'OBJ'), ('op', 'OBJ'), ('het', 'OBJ'), ('grondgebied', 'OBJ'), ('van', 'OBJ'), ('Nederland', 'OBJ'), (',', 'O'), ('onderscheiden', 'O'), ('##lijk', 'O'), ('Aruba', 'O'), (',', 'O'), ('Cura', 'O'), ('##a', 'O'), ('##o', 'O'), ('of', 'O'), ('Sint', 'O'), ('Maarten', 'O'), (',', 'O'), ('of', 'O'), ('aan', 'OBJ'), ('boord', 'OBJ'), ('van', 'O'), ('een', 'O'), ('in', 'O'), ('Nederland', 'O'), (',', 'O'), ('Aruba', 'O'), (',', 'O'), ('Cura', 'O'), ('##a', 'O'), ('##o', 'O'), ('of', 'O'), ('Sint', 'O'), ('Maarten', 'O'), ('te', 'OBJ'), ('boek', 'O'), ('gesteld', 'O'), ('ze', 'O'), ('##e', 'O'), ('##schip', 'O'), ('of', 'O'), ('luchtvaart', 'O'), ('##ui', 'O'), ('##g', 'O'), (',', 'O'), ('gevonden', 'OBJ'), ('kind', 'O'), ('wordt', 'V'), ('aangemerkt', 'O'), ('als', 'O'), ('het', 'O'), ('kind', 'O'), ('van', 'O'), ('een', 'O'), ('Nederlander', 'O'), ('tenzij', 'O'), ('binnen', 'O'), ('vijf', 'O'), ('jaren', 'O'), (',', 'O'), ('te', 'O'), ('rekenen', 'O'), ('vanaf', 'O'), ('de', 'O'), ('dag', 'O'), ('waar', 'O'), ('##op', 'O'), ('het', 'O'), ('is', 'O'), ('gevonden', 'O'), (',', 'O'), ('blijkt', 'O'), ('dat', 'O'), ('het', 'O'), ('kind', 'O'), ('door', 'O'), ('geboorte', 'O'), ('een', 'O'), ('vreemde', 'O'), ('nationaliteit', 'O'), ('bezit', 'O'), ('.', 'O'), ('[SEP]', 'O')]"
69-Rijkswet_op_het_Nederlanderschap,Bij het afleggen van de verklaring tot verkrijging van het Nederlanderschap verklaart de meerderjarige vreemdeling en de minderjarige vreemdeling die de leeftijd van zestien jaar heeft bereikt tevens bereid te zijn bij de verkrijging van het Nederlanderschap een verklaring van verbondenheid af te leggen . ,"[('[CLS]', 'O'), ('Bij', 'O'), ('het', 'O'), ('af', 'O'), ('##leggen', 'O'), ('van', 'O'), ('de', 'O'), ('verklaring', 'O'), ('tot', 'O'), ('ver', 'O'), ('##krijg', 'O'), ('##ing', 'O'), ('van', 'O'), ('het', 'O'), ('Nederlanders', 'O'), ('##cha', 'O'), ('##p', 'O'), ('verklaar', 'V'), ('##t', 'V'), ('de', 'ACTOR'), ('meerderjarig', 'ACTOR'), ('##e', 'ACTOR'), ('vreemdeling', 'ACTOR'), ('en', 'ACTOR'), ('de', 'ACTOR'), ('minderjarige', 'ACTOR'), ('vreemdeling', 'ACTOR'), ('die', 'ACTOR'), ('de', 'ACTOR'), ('leeftijd', 'ACTOR'), ('van', 'ACTOR'), ('zestien', 'ACTOR'), ('jaar', 'ACTOR'), ('heeft', 'ACTOR'), ('bereikt', 'ACTOR'), ('te', 'O'), ('##ven', 'O'), ('##s', 'O'), ('bereid', 'V'), ('te', 'V'), ('zijn', 'V'), ('bij', 'O'), ('de', 'O'), ('ver', 'O'), ('##krijg', 'O'), ('##ing', 'O'), ('van', 'O'), ('het', 'O'), ('Nederlanders', 'O'), ('##cha', 'O'), ('##p', 'O'), ('een', 'OBJ'), ('verklaring', 'OBJ'), ('van', 'OBJ'), ('verbonden', 'OBJ'), ('##heid', 'OBJ'), ('af', 'V'), ('te', 'V'), ('leggen', 'OBJ'), ('.', 'O'), ('[SEP]', 'O')]"
71-Rijkswet_op_het_Nederlanderschap,"De autoriteit die de verklaring in ontvangst neemt ,  beoordeelt aan de hand van de haar overgelegde stukken de gronden waarop de verklaring berust . ","[('[CLS]', 'ACTOR'), ('De', 'ACTOR'), ('autoriteit', 'ACTOR'), ('die', 'ACTOR'), ('de', 'ACTOR'), ('verklaring', 'ACTOR'), ('in', 'ACTOR'), ('ontvangst', 'ACTOR'), ('neemt', 'ACTOR'), (',', 'O'), ('beoordeel', 'V'), ('##t', 'V'), ('aan', 'O'), ('de', 'O'), ('hand', 'O'), ('van', 'O'), ('de', 'O'), ('haar', 'O'), ('over', 'O'), ('##gelegd', 'O'), ('##e', 'O'), ('stukken', 'O'), ('de', 'OBJ'), ('gronden', 'OBJ'), ('waar', 'OBJ'), ('##op', 'OBJ'), ('de', 'OBJ'), ('verklaring', 'OBJ'), ('berust', 'OBJ'), ('.', 'O'), ('[SEP]', 'O')]"
72-Rijkswet_op_het_Nederlanderschap,"Indien aan de vereisten is voldaan ,  bevestigt zij schriftelijk de verkrijging van het Nederlanderschap . ","[('[CLS]', 'O'), ('Indien', 'O'), ('aan', 'O'), ('de', 'O'), ('vereiste', 'O'), ('##n', 'O'), ('is', 'O'), ('voldaan', 'O'), (',', 'O'), ('bevestig', 'V'), ('##t', 'V'), ('zij', 'ACTOR'), ('schriftelijk', 'O'), ('de', 'OBJ'), ('ver', 'OBJ'), ('##krijg', 'OBJ'), ('##ing', 'OBJ'), ('van', 'OBJ'), ('het', 'OBJ'), ('Nederlanders', 'OBJ'), ('##cha', 'OBJ'), ('##p', 'OBJ'), ('.', 'O'), ('[SEP]', 'O')]"
248-Rijkswet_op_het_Nederlanderschap,"Degene die de verklaring aflegt voegt daar ter bevestiging aan toe :  Zo waarlijk helpe mij God almachtig ,  of :  Dat verklaar en beloof ik . ","[('[CLS]', 'ACTOR'), ('De', 'ACTOR'), ('##gene', 'ACTOR'), ('die', 'ACTOR'), ('de', 'ACTOR'), ('verklaring', 'ACTOR'), ('af', 'ACTOR'), ('##legt', 'ACTOR'), ('voegt', 'V'), ('daar', 'O'), ('ter', 'O'), ('bevestiging', 'O'), ('aan', 'V'), ('toe', 'V'), (':', 'O'), ('Zo', 'OBJ'), ('waarlijk', 'OBJ'), ('help', 'OBJ'), ('##e', 'OBJ'), ('mij', 'OBJ'), ('God', 'OBJ'), ('almachtig', 'OBJ'), (',', 'O'), ('of', 'OBJ'), (':', 'O'), ('Dat', 'OBJ'), ('verklaar', 'OBJ'), ('en', 'OBJ'), ('beloof', 'OBJ'), ('ik', 'OBJ'), ('.', 'O'), ('[SEP]', 'O')]"
245-Rijkswet_op_het_Nederlanderschap,"Bij of krachtens algemene maatregel van rijksbestuur kunnen nadere regels worden gesteld omtrent uitvoering van de  ,   en 22C en de beloning van toegevoegde raadslieden en de vergoeding van hun onkosten . artikelen 22A","[('[CLS]', 'O'), ('Bij', 'O'), ('of', 'O'), ('krachten', 'O'), ('##s', 'O'), ('algemene', 'O'), ('maatregel', 'O'), ('van', 'O'), ('rijks', 'O'), ('##bestuur', 'O'), ('kunnen', 'V'), ('nadere', 'OBJ'), ('regels', 'OBJ'), ('worden', 'V'), ('gesteld', 'V'), ('om', 'OBJ'), ('##trent', 'OBJ'), ('uitvoering', 'OBJ'), ('van', 'OBJ'), ('de', 'OBJ'), (',', 'O'), ('en', 'OBJ'), ('22', 'OBJ'), ('##C', 'OBJ'), ('en', 'OBJ'), ('de', 'OBJ'), ('beloning', 'OBJ'), ('van', 'OBJ'), ('toegevoegd', 'OBJ'), ('##e', 'OBJ'), ('raad', 'OBJ'), ('##s', 'OBJ'), ('##lieden', 'OBJ'), ('en', 'OBJ'), ('de', 'OBJ'), ('vergoeding', 'OBJ'), ('van', 'OBJ'), ('hun', 'OBJ'), ('on', 'OBJ'), ('##kosten', 'O'), ('.', 'O'), ('artikelen', 'O'), ('22', 'O'), ('##A', 'O'), ('[SEP]', 'O')]"
30-Wet_openbaarheid_van_bestuur,"Het bestuursorgaan beslist op het verzoek om informatie zo spoedig mogelijk ,  doch uiterlijk binnen vier weken gerekend vanaf de dag na die waarop het verzoek is ontvangen . ","[('[CLS]', 'O'), ('Het', 'ACTOR'), ('bestuurs', 'ACTOR'), ('##orgaan', 'ACTOR'), ('beslist', 'V'), ('op', 'V'), ('het', 'OBJ'), ('verzoek', 'OBJ'), ('om', 'OBJ'), ('informatie', 'OBJ'), ('zo', 'O'), ('spoedig', 'O'), ('mogelijk', 'O'), (',', 'O'), ('doch', 'O'), ('uiterlijk', 'O'), ('binnen', 'O'), ('vier', 'O'), ('weken', 'O'), ('gerekend', 'O'), ('vanaf', 'O'), ('de', 'O'), ('dag', 'O'), ('na', 'O'), ('die', 'O'), ('waar', 'O'), ('##op', 'O'), ('het', 'O'), ('verzoek', 'O'), ('is', 'O'), ('ontvangen', 'O'), ('.', 'O'), ('[SEP]', 'O')]"
50-Wet_openbaarheid_van_bestuur,"Het bestuursorgaan draagt er zorg voor dat de informatie wordt verschaft in begrijpelijke vorm ,  op zodanige wijze ,  dat belanghebbende en belangstellende burgers zoveel mogelijk worden bereikt en op zodanige tijdstippen ,  dat deze hun inzichten tijdig ter kennis van het bestuursorgaan kunnen brengen . ","[('[CLS]', 'ACTOR'), ('Het', 'ACTOR'), ('bestuurs', 'ACTOR'), ('##orgaan', 'ACTOR'), ('draagt', 'V'), ('er', 'V'), ('zorg', 'V'), ('voor', 'V'), ('dat', 'OBJ'), ('de', 'OBJ'), ('informatie', 'OBJ'), ('wordt', 'OBJ'), ('verschaft', 'OBJ'), ('in', 'OBJ'), ('begrijpelijk', 'OBJ'), ('##e', 'OBJ'), ('vorm', 'OBJ'), (',', 'O'), ('op', 'OBJ'), ('zodanig', 'O'), ('##e', 'OBJ'), ('wijze', 'OBJ'), (',', 'O'), ('dat', 'O'), ('belanghebbende', 'O'), ('en', 'O'), ('belangstellend', 'O'), ('##e', 'O'), ('burgers', 'O'), ('zoveel', 'O'), ('mogelijk', 'O'), ('worden', 'O'), ('bereikt', 'O'), ('en', 'O'), ('op', 'O'), ('zodanig', 'O'), ('##e', 'O'), ('tijdstip', 'O'), ('##pen', 'O'), (',', 'O'), ('dat', 'O'), ('deze', 'O'), ('hun', 'O'), ('inzicht', 'O'), ('##en', 'O'), ('tijdig', 'O'), ('ter', 'O'), ('kennis', 'O'), ('van', 'O'), ('het', 'O'), ('bestuurs', 'O'), ('##orgaan', 'O'), ('kunnen', 'O'), ('brengen', 'O'), ('.', 'O'), ('[SEP]', 'O')]"
116-Wet_openbaarheid_van_bestuur,"Onze Minister - President ,  Minister van Algemene Zaken ,  en Onze Minister van Binnenlandse Zaken zenden binnen vijf jaar na het in werking treden van deze wet aan de Staten - Generaal een verslag over de wijze waarop zij is toegepast . ","[('[CLS]', 'ACTOR'), ('Onze', 'ACTOR'), ('Minister', 'ACTOR'), ('-', 'ACTOR'), ('President', 'ACTOR'), (',', 'O'), ('Minister', 'ACTOR'), ('van', 'ACTOR'), ('Algemene', 'ACTOR'), ('Zaken', 'ACTOR'), (',', 'O'), ('en', 'ACTOR'), ('Onze', 'ACTOR'), ('Minister', 'ACTOR'), ('van', 'ACTOR'), ('Binnenlands', 'ACTOR'), ('##e', 'ACTOR'), ('Zaken', 'ACTOR'), ('zenden', 'V'), ('binnen', 'O'), ('vijf', 'O'), ('jaar', 'O'), ('na', 'O'), ('het', 'O'), ('in', 'O'), ('werking', 'O'), ('treden', 'O'), ('van', 'O'), ('deze', 'O'), ('wet', 'O'), ('aan', 'REC'), ('de', 'REC'), ('Staten', 'REC'), ('-', 'REC'), ('Generaal', 'REC'), ('een', 'OBJ'), ('verslag', 'OBJ'), ('over', 'OBJ'), ('de', 'OBJ'), ('wijze', 'OBJ'), ('waar', 'OBJ'), ('##op', 'OBJ'), ('zij', 'OBJ'), ('is', 'OBJ'), ('toegepast', 'OBJ'), ('.', 'O'), ('[SEP]', 'O')]"
124-Wet_openbaarheid_van_bestuur,"De Wet openbaarheid van bestuur  (  1978 ,  581 )  wordt ingetrokken . Stb . ","[('[CLS]', 'O'), ('De', 'OBJ'), ('Wet', 'OBJ'), ('openbaarheid', 'OBJ'), ('van', 'OBJ'), ('bestuur', 'OBJ'), ('(', 'O'), ('1978', 'O'), (',', 'O'), ('58', 'O'), ('##1', 'O'), (')', 'O'), ('wordt', 'V'), ('ingetrokken', 'V'), ('.', 'O'), ('St', 'O'), ('##b', 'O'), ('.', 'O'), ('[SEP]', 'O')]"
30-Rijkswet_op_het_Nederlanderschap,Bij of krachtens algemene maatregel van rijksbestuur kunnen nadere regels worden gesteld met betrekking tot het in het vierde lid bedoelde bewijs . ,"[('[CLS]', 'O'), ('Bij', 'O'), ('of', 'O'), ('krachten', 'O'), ('##s', 'O'), ('algemene', 'O'), ('maatregel', 'O'), ('van', 'O'), ('rijks', 'O'), ('##bestuur', 'O'), ('kunnen', 'V'), ('nadere', 'OBJ'), ('regels', 'OBJ'), ('worden', 'V'), ('gesteld', 'V'), ('met', 'OBJ'), ('betrekking', 'OBJ'), ('tot', 'OBJ'), ('het', 'OBJ'), ('in', 'OBJ'), ('het', 'OBJ'), ('vierde', 'OBJ'), ('lid', 'OBJ'), ('bedoelde', 'OBJ'), ('bewijs', 'OBJ'), ('.', 'O'), ('[SEP]', 'O')]"
74-Rijkswet_op_het_Nederlanderschap,Zij beslist binnen dertien weken na de inontvangstneming van de verklaring ;  deze termijn kan nmaal met ten hoogste dertien weken worden verlengd . ,"[('[CLS]', 'O'), ('Zij', 'ACTOR'), ('beslist', 'V'), ('binnen', 'O'), ('dertien', 'O'), ('weken', 'O'), ('na', 'O'), ('de', 'O'), ('in', 'O'), ('##ont', 'O'), ('##vangst', 'O'), ('##neming', 'O'), ('van', 'O'), ('de', 'O'), ('verklaring', 'O'), (';', 'O'), ('deze', 'O'), ('termijn', 'O'), ('kan', 'O'), ('n', 'O'), ('##maal', 'O'), ('met', 'O'), ('te', 'O'), ('##n', 'O'), ('hoogste', 'O'), ('dertien', 'O'), ('weken', 'O'), ('worden', 'O'), ('verlengd', 'O'), ('.', 'O'), ('[SEP]', 'O')]"
232-Rijkswet_op_het_Nederlanderschap,"Zodra de rechtbank onderscheidenlijk het Gerecht van eerste aanleg de kennisgeving heeft ontvangen ,  wordt degene die het betreft geacht beroep te hebben ingesteld tegen het besluit tot intrekking van het Nederlanderschap . ","[('[CLS]', 'O'), ('Zo', 'O'), ('##dra', 'O'), ('de', 'O'), ('rechtbank', 'O'), ('onderscheiden', 'O'), ('##lijk', 'O'), ('het', 'O'), ('Ger', 'O'), ('##echt', 'O'), ('van', 'O'), ('eerste', 'O'), ('aanleg', 'O'), ('de', 'O'), ('kennis', 'O'), ('##geving', 'O'), ('heeft', 'O'), ('ontvangen', 'O'), (',', 'O'), ('wordt', 'V'), ('degene', 'OBJ'), ('die', 'OBJ'), ('het', 'OBJ'), ('betreft', 'OBJ'), ('geacht', 'V'), ('beroep', 'O'), ('te', 'V'), ('hebben', 'V'), ('ingesteld', 'V'), ('tegen', 'O'), ('het', 'O'), ('besluit', 'O'), ('tot', 'O'), ('in', 'O'), ('##trekking', 'O'), ('van', 'O'), ('het', 'O'), ('Nederlanders', 'O'), ('##cha', 'O'), ('##p', 'O'), ('.', 'O'), ('[SEP]', 'O')]"
252-Rijkswet_op_het_Nederlanderschap,Wij kunnen een ander tijdstip vaststellen waarop  in werking treedt .  6,"[('[CLS]', 'O'), ('Wij', 'ACTOR'), ('kunnen', 'V'), ('een', 'OBJ'), ('ander', 'OBJ'), ('tijdstip', 'OBJ'), ('vaststellen', 'V'), ('waar', 'OBJ'), ('##op', 'OBJ'), ('in', 'OBJ'), ('werking', 'OBJ'), ('tree', 'O'), ('##d', 'O'), ('##t', 'O'), ('.', 'O'), ('6', 'O'), ('[SEP]', 'O')]"
17-Wet_openbaarheid_van_bestuur,"Een ieder kan een verzoek om informatie neergelegd in documenten over een bestuurlijke aangelegenheid richten tot een bestuursorgaan of een onder verantwoordelijkheid van een bestuursorgaan werkzame instelling ,  dienst of bedrijf . ","[('[CLS]', 'ACTOR'), ('Een', 'ACTOR'), ('ieder', 'ACTOR'), ('kan', 'V'), ('een', 'OBJ'), ('verzoek', 'OBJ'), ('om', 'OBJ'), ('informatie', 'OBJ'), ('neergelegd', 'OBJ'), ('in', 'OBJ'), ('documenten', 'OBJ'), ('over', 'OBJ'), ('een', 'OBJ'), ('bestuurlijke', 'OBJ'), ('aangelegenhe', 'OBJ'), ('##i', 'OBJ'), ('##d', 'OBJ'), ('richten', 'V'), ('tot', 'O'), ('een', 'O'), ('bestuurs', 'O'), ('##orgaan', 'O'), ('of', 'O'), ('een', 'O'), ('onder', 'O'), ('verantwoord', 'O'), ('##elijkheid', 'O'), ('van', 'O'), ('een', 'O'), ('bestuurs', 'O'), ('##orgaan', 'O'), ('werkzame', 'O'), ('instelling', 'O'), (',', 'O'), ('dienst', 'O'), ('of', 'O'), ('bedrijf', 'O'), ('.', 'O'), ('[SEP]', 'O')]"
102-Wet_openbaarheid_van_bestuur,"In afwijking van  kan degene aan wie het recht is toegekend beroep bij de bestuursrechter in te stellen tegen het niet tijdig nemen van een besluit op grond van deze wet ,  alvorens beroep in te stellen bezwaar maken . ","[('[CLS]', 'O'), ('In', 'O'), ('afwijking', 'O'), ('van', 'O'), ('kan', 'V'), ('degene', 'ACTOR'), ('aan', 'ACTOR'), ('wie', 'ACTOR'), ('het', 'ACTOR'), ('recht', 'ACTOR'), ('is', 'ACTOR'), ('toegekend', 'ACTOR'), ('beroep', 'ACTOR'), ('bij', 'ACTOR'), ('de', 'ACTOR'), ('bestuursrecht', 'ACTOR'), ('##er', 'ACTOR'), ('in', 'V'), ('te', 'V'), ('stellen', 'V'), ('tegen', 'V'), ('het', 'OBJ'), ('niet', 'OBJ'), ('tijdig', 'OBJ'), ('nemen', 'OBJ'), ('van', 'OBJ'), ('een', 'OBJ'), ('besluit', 'OBJ'), ('op', 'OBJ'), ('grond', 'OBJ'), ('van', 'OBJ'), ('deze', 'OBJ'), ('wet', 'OBJ'), (',', 'O'), ('al', 'O'), ('##vorens', 'O'), ('beroep', 'O'), ('in', 'O'), ('te', 'O'), ('stellen', 'O'), ('bezwaar', 'O'), ('maken', 'O'), ('.', 'O'), ('[SEP]', 'O')]"
18-Rijkswet_op_het_Nederlanderschap,De verklaring van verbondenheid wordt door minderjarigen van zestien jaar en ouder zelfstandig afgelegd . ,"[('[CLS]', 'O'), ('De', 'OBJ'), ('verklaring', 'OBJ'), ('van', 'OBJ'), ('verbonden', 'OBJ'), ('##heid', 'OBJ'), ('wordt', 'V'), ('door', 'ACTOR'), ('minderjarige', 'ACTOR'), ('##n', 'ACTOR'), ('van', 'O'), ('zestien', 'O'), ('jaar', 'O'), ('en', 'O'), ('ouder', 'O'), ('zelfstandig', 'O'), ('afgelegd', 'V'), ('.', 'O'), ('[SEP]', 'O')]"
24-Rijkswet_op_het_Nederlanderschap,"Betreft het een Nederlandse uitspraak dan verkrijgt het kind het Nederlanderschap op de eerste dag na een periode van drie maanden ,  te rekenen van de dag van de uitspraak in eerste aanleg of ,  indien binnen deze periode hoger beroep is ingesteld ,  van drie maanden ,  te rekenen van de dag van de uitspraak in hoger beroep ,  dan wel ,  indien binnen deze laatste periode beroep in cassatie is ingesteld ,  op de dag van de uitspraak in cassatie . ","[('[CLS]', 'O'), ('Bet', 'O'), ('##r', 'O'), ('##eft', 'O'), ('het', 'O'), ('een', 'O'), ('Nederlandse', 'O'), ('uitspraak', 'O'), ('dan', 'O'), ('ver', 'V'), ('##krijg', 'V'), ('##t', 'V'), ('het', 'ACTOR'), ('kind', 'ACTOR'), ('het', 'OBJ'), ('Nederlanders', 'OBJ'), ('##cha', 'OBJ'), ('##p', 'OBJ'), ('op', 'O'), ('de', 'O'), ('eerste', 'O'), ('dag', 'O'), ('na', 'O'), ('een', 'O'), ('periode', 'O'), ('van', 'O'), ('drie', 'O'), ('maanden', 'O'), (',', 'O'), ('te', 'O'), ('rekenen', 'O'), ('van', 'O'), ('de', 'O'), ('dag', 'O'), ('van', 'O'), ('de', 'O'), ('uitspraak', 'O'), ('in', 'O'), ('eerste', 'O'), ('aanleg', 'O'), ('of', 'O'), (',', 'O'), ('indien', 'O'), ('binnen', 'O'), ('deze', 'O'), ('periode', 'O'), ('hoger', 'O'), ('beroep', 'O'), ('is', 'O'), ('ingesteld', 'O'), (',', 'O'), ('van', 'O'), ('drie', 'O'), ('maanden', 'O'), (',', 'O'), ('te', 'O'), ('rekenen', 'O'), ('van', 'O'), ('de', 'O'), ('dag', 'O'), ('van', 'O'), ('de', 'O'), ('uitspraak', 'O'), ('in', 'O'), ('hoger', 'O'), ('beroep', 'O'), (',', 'O'), ('dan', 'O'), ('wel', 'O'), (',', 'O'), ('indien', 'O'), ('binnen', 'O'), ('deze', 'O'), ('laatste', 'O'), ('periode', 'O'), ('beroep', 'O'), ('in', 'O'), ('cassatie', 'O'), ('is', 'O'), ('ingesteld', 'O'), (',', 'O'), ('op', 'O'), ('de', 'O'), ('dag', 'O'), ('van', 'O'), ('de', 'O'), ('uitspraak', 'O'), ('in', 'O'), ('cassatie', 'O'), ('.', 'O'), ('[SEP]', 'O')]"
32-Rijkswet_op_het_Nederlanderschap,"Het kind verkrijgt het Nederlanderschap op de eerste dag na een periode van drie maanden ,  te rekenen van de dag van de uitspraak in eerste aanleg of ,  indien binnen deze periode hoger beroep is ingesteld ,  van drie maanden ,  te rekenen van de dag van de uitspraak in hoger beroep ,  dan wel ,  indien binnen deze laatste periode beroep in cassatie is ingesteld ,  op de dag van de uitspraak in cassatie . ","[('[CLS]', 'O'), ('Het', 'ACTOR'), ('kind', 'ACTOR'), ('ver', 'V'), ('##krijg', 'V'), ('##t', 'V'), ('het', 'OBJ'), ('Nederlanders', 'OBJ'), ('##cha', 'OBJ'), ('##p', 'OBJ'), ('op', 'O'), ('de', 'O'), ('eerste', 'O'), ('dag', 'O'), ('na', 'O'), ('een', 'O'), ('periode', 'O'), ('van', 'O'), ('drie', 'O'), ('maanden', 'O'), (',', 'O'), ('te', 'O'), ('rekenen', 'O'), ('van', 'O'), ('de', 'O'), ('dag', 'O'), ('van', 'O'), ('de', 'O'), ('uitspraak', 'O'), ('in', 'O'), ('eerste', 'O'), ('aanleg', 'O'), ('of', 'O'), (',', 'O'), ('indien', 'O'), ('binnen', 'O'), ('deze', 'O'), ('periode', 'O'), ('hoger', 'O'), ('beroep', 'O'), ('is', 'O'), ('ingesteld', 'O'), (',', 'O'), ('van', 'O'), ('drie', 'O'), ('maanden', 'O'), (',', 'O'), ('te', 'O'), ('rekenen', 'O'), ('van', 'O'), ('de', 'O'), ('dag', 'O'), ('van', 'O'), ('de', 'O'), ('uitspraak', 'O'), ('in', 'O'), ('hoger', 'O'), ('beroep', 'O'), (',', 'O'), ('dan', 'O'), ('wel', 'O'), (',', 'O'), ('indien', 'O'), ('binnen', 'O'), ('deze', 'O'), ('laatste', 'O'), ('periode', 'O'), ('beroep', 'O'), ('in', 'O'), ('cassatie', 'O'), ('is', 'O'), ('ingesteld', 'O'), (',', 'O'), ('op', 'O'), ('de', 'O'), ('dag', 'O'), ('van', 'O'), ('de', 'O'), ('uitspraak', 'O'), ('in', 'O'), ('cassatie', 'O'), ('.', 'O'), ('[SEP]', 'O')]"
159-Rijkswet_op_het_Nederlanderschap,"Wij kunnen ,  de Raad van State van het Koninkrijk gehoord ,  in bijzondere gevallen van de eerste zin afwijken ,  indien ten minste vijf jaren zijn verstreken sedert het verlies van de Nederlandse nationaliteit . ","[('[CLS]', 'O'), ('Wij', 'ACTOR'), ('kunnen', 'V'), (',', 'O'), ('de', 'O'), ('Raad', 'O'), ('van', 'O'), ('State', 'O'), ('van', 'O'), ('het', 'O'), ('Koninkrijk', 'O'), ('gehoord', 'O'), (',', 'O'), ('in', 'O'), ('bijzondere', 'O'), ('gevallen', 'O'), ('van', 'O'), ('de', 'O'), ('eerste', 'O'), ('zin', 'O'), ('af', 'O'), ('##wijk', 'O'), ('##en', 'O'), (',', 'O'), ('indien', 'O'), ('te', 'O'), ('##n', 'O'), ('minste', 'O'), ('vijf', 'O'), ('jaren', 'O'), ('zijn', 'O'), ('verstrek', 'O'), ('##en', 'O'), ('sedert', 'O'), ('het', 'O'), ('verlies', 'O'), ('van', 'O'), ('de', 'O'), ('Nederlandse', 'O'), ('nationaliteit', 'O'), ('.', 'O'), ('[SEP]', 'O')]"
51-Wet_openbaarheid_van_bestuur,"Het bestuursorgaan dat het rechtstreeks aangaat draagt zorg voor het openbaar maken ,  zo nodig en mogelijk met toelichting ,  van door niet - ambtelijke adviescommissies aan het orgaan uitgebrachte adviezen met het oog op het te vormen beleid ,  tezamen met de door het orgaan aan de commissies voorgelegde adviesaanvragen en voorstellen . ","[('[CLS]', 'ACTOR'), ('Het', 'ACTOR'), ('bestuurs', 'ACTOR'), ('##orgaan', 'ACTOR'), ('dat', 'ACTOR'), ('het', 'ACTOR'), ('rechtstreeks', 'ACTOR'), ('aan', 'ACTOR'), ('##gaat', 'ACTOR'), ('draagt', 'V'), ('zorg', 'V'), ('voor', 'V'), ('het', 'OBJ'), ('openbaar', 'OBJ'), ('maken', 'OBJ'), (',', 'O'), ('zo', 'OBJ'), ('nodig', 'OBJ'), ('en', 'OBJ'), ('mogelijk', 'OBJ'), ('met', 'OBJ'), ('toelichting', 'OBJ'), (',', 'O'), ('van', 'OBJ'), ('door', 'OBJ'), ('niet', 'OBJ'), ('-', 'OBJ'), ('ambtelijke', 'OBJ'), ('advies', 'OBJ'), ('##commissie', 'OBJ'), ('##s', 'OBJ'), ('aan', 'OBJ'), ('het', 'OBJ'), ('orgaan', 'OBJ'), ('uitgebracht', 'OBJ'), ('##e', 'OBJ'), ('adviezen', 'OBJ'), ('met', 'OBJ'), ('het', 'OBJ'), ('oog', 'O'), ('op', 'O'), ('het', 'O'), ('te', 'OBJ'), ('vormen', 'O'), ('beleid', 'O'), (',', 'O'), ('tezamen', 'O'), ('met', 'O'), ('de', 'O'), ('door', 'O'), ('het', 'O'), ('orgaan', 'O'), ('aan', 'O'), ('de', 'O'), ('commissie', 'O'), ('##s', 'O'), ('voorgelegd', 'O'), ('##e', 'O'), ('advies', 'O'), ('##aan', 'O'), ('##vragen', 'O'), ('en', 'O'), ('voorstellen', 'O'), ('.', 'O'), ('[SEP]', 'O')]"
103-Wet_openbaarheid_van_bestuur,Het bezwaarschrift kan worden ingediend zodra het bestuursorgaan in gebreke is tijdig een besluit te nemen . ,"[('[CLS]', 'O'), ('Het', 'OBJ'), ('bezwaar', 'OBJ'), ('##schrift', 'OBJ'), ('kan', 'V'), ('worden', 'V'), ('ingediend', 'V'), ('zo', 'O'), ('##dra', 'O'), ('het', 'O'), ('bestuurs', 'O'), ('##orgaan', 'O'), ('in', 'O'), ('gebrek', 'O'), ('##e', 'O'), ('is', 'O'), ('tijdig', 'O'), ('een', 'O'), ('besluit', 'O'), ('te', 'O'), ('nemen', 'O'), ('.', 'O'), ('[SEP]', 'O')]"
129-Rijkswet_op_het_Nederlanderschap,"Het Nederlanderschap wordt slechts verleend ,  indien het kind daarmee uitdrukkelijk instemt ,  hij bereid is bij de verkrijging van het Nederlanderschap een verklaring van verbondenheid af te leggen en op hem geen van de afwijzingsgronden van  ,  met inbegrip van het tweede lid van dat artikel ,  van toepassing is . ","[('[CLS]', 'O'), ('Het', 'OBJ'), ('Nederlanders', 'OBJ'), ('##cha', 'OBJ'), ('##p', 'OBJ'), ('wordt', 'V'), ('slechts', 'O'), ('verleend', 'V'), (',', 'O'), ('indien', 'O'), ('het', 'O'), ('kind', 'O'), ('daarmee', 'O'), ('uitdrukkelijk', 'O'), ('in', 'O'), ('##stem', 'O'), ('##t', 'O'), (',', 'O'), ('hij', 'O'), ('bereid', 'O'), ('is', 'O'), ('bij', 'O'), ('de', 'O'), ('ver', 'O'), ('##krijg', 'O'), ('##ing', 'O'), ('van', 'O'), ('het', 'O'), ('Nederlanders', 'O'), ('##cha', 'O'), ('##p', 'O'), ('een', 'O'), ('verklaring', 'O'), ('van', 'O'), ('verbonden', 'O'), ('##heid', 'O'), ('af', 'O'), ('te', 'O'), ('leggen', 'O'), ('en', 'O'), ('op', 'O'), ('hem', 'O'), ('geen', 'O'), ('van', 'O'), ('de', 'O'), ('afwijzing', 'O'), ('##s', 'O'), ('##grond', 'O'), ('##en', 'O'), ('van', 'O'), (',', 'O'), ('met', 'O'), ('in', 'O'), ('##begrip', 'O'), ('van', 'O'), ('het', 'O'), ('tweede', 'O'), ('lid', 'O'), ('van', 'O'), ('dat', 'O'), ('artikel', 'O'), (',', 'O'), ('van', 'O'), ('toepassing', 'O'), ('is', 'O'), ('.', 'O'), ('[SEP]', 'O')]"
241-Rijkswet_op_het_Nederlanderschap,De ingevolge het tweede of derde lid gekozen raadsman treedt af zodra de belanghebbende zelf een raadsman heeft gekozen . ,"[('[CLS]', 'ACTOR'), ('De', 'ACTOR'), ('inge', 'ACTOR'), ('##vol', 'ACTOR'), ('##ge', 'ACTOR'), ('het', 'ACTOR'), ('tweede', 'ACTOR'), ('of', 'ACTOR'), ('derde', 'ACTOR'), ('lid', 'ACTOR'), ('gekozen', 'ACTOR'), ('raadsman', 'ACTOR'), ('tree', 'V'), ('##d', 'V'), ('##t', 'V'), ('af', 'V'), ('zo', 'O'), ('##dra', 'O'), ('de', 'O'), ('belanghebbende', 'O'), ('zelf', 'O'), ('een', 'O'), ('raadsman', 'O'), ('heeft', 'O'), ('gekozen', 'O'), ('.', 'O'), ('[SEP]', 'O')]"
134-Rijkswet_op_het_Nederlanderschap,Het besluit tot verlening wordt niet bekend gemaakt dan nadat de verklaring van verbondenheid daadwerkelijk is afgelegd . ,"[('[CLS]', 'O'), ('Het', 'OBJ'), ('besluit', 'OBJ'), ('tot', 'OBJ'), ('ver', 'OBJ'), ('##lening', 'OBJ'), ('wordt', 'V'), ('niet', 'V'), ('bekend', 'V'), ('gemaakt', 'V'), ('dan', 'O'), ('nadat', 'O'), ('de', 'O'), ('verklaring', 'O'), ('van', 'O'), ('verbonden', 'O'), ('##heid', 'O'), ('daadwerkelijk', 'O'), ('is', 'O'), ('afgelegd', 'O'), ('.', 'O'), ('[SEP]', 'O')]"
13-Rijkswet_op_het_Nederlanderschap,Behoudens in de bij algemene maatregel van rijksbestuur te bepalen gevallen worden verklaringen en verzoeken in persoon afgelegd en ingediend . ,"[('[CLS]', 'O'), ('Be', 'O'), ('##houden', 'O'), ('##s', 'O'), ('in', 'O'), ('de', 'O'), ('bij', 'O'), ('algemene', 'O'), ('maatregel', 'O'), ('van', 'O'), ('rijks', 'O'), ('##bestuur', 'O'), ('te', 'O'), ('bepalen', 'O'), ('gevallen', 'O'), ('worden', 'V'), ('verklaringen', 'OBJ'), ('en', 'OBJ'), ('verzoeken', 'OBJ'), ('in', 'OBJ'), ('persoon', 'OBJ'), ('afgelegd', 'V'), ('en', 'V'), ('ingediend', 'V'), ('.', 'O'), ('[SEP]', 'O')]"
94-Rijkswet_op_het_Nederlanderschap,Met inachtneming van de bepalingen van dit Hoofdstuk verlenen Wij op voordracht van Onze Minister het Nederlanderschap aan vreemdelingen die daarom verzoeken . ,"[('[CLS]', 'O'), ('Met', 'O'), ('in', 'O'), ('##acht', 'O'), ('##neming', 'O'), ('van', 'O'), ('de', 'O'), ('bepaling', 'O'), ('##en', 'O'), ('van', 'O'), ('dit', 'O'), ('Hoofd', 'O'), ('##stuk', 'O'), ('verlenen', 'V'), ('Wij', 'ACTOR'), ('op', 'O'), ('voordracht', 'O'), ('van', 'O'), ('Onze', 'O'), ('Minister', 'O'), ('het', 'OBJ'), ('Nederlanders', 'OBJ'), ('##cha', 'OBJ'), ('##p', 'OBJ'), ('aan', 'REC'), ('vreemdelingen', 'REC'), ('die', 'REC'), ('daarom', 'REC'), ('verzoeken', 'REC'), ('.', 'O'), ('[SEP]', 'O')]"
145-Rijkswet_op_het_Nederlanderschap,"Bij algemene maatregel van rijksbestuur worden regelen gesteld betreffende het recht dat verschuldigd is voor het afleggen en de behandeling van de verklaring van optie en van het verzoek tot verlening van het Nederlanderschap ,  de gevallen en de mate waarin daarvan ontheffing kan worden verleend en de wijze waarop het moet worden voldaan . ","[('[CLS]', 'O'), ('Bij', 'O'), ('algemene', 'O'), ('maatregel', 'O'), ('van', 'O'), ('rijks', 'O'), ('##bestuur', 'O'), ('worden', 'V'), ('regelen', 'OBJ'), ('gesteld', 'V'), ('betreffende', 'OBJ'), ('het', 'OBJ'), ('recht', 'OBJ'), ('dat', 'OBJ'), ('verschuldigd', 'OBJ'), ('is', 'OBJ'), ('voor', 'OBJ'), ('het', 'OBJ'), ('af', 'OBJ'), ('##leggen', 'OBJ'), ('en', 'OBJ'), ('de', 'OBJ'), ('behandeling', 'OBJ'), ('van', 'OBJ'), ('de', 'OBJ'), ('verklaring', 'OBJ'), ('van', 'OBJ'), ('optie', 'OBJ'), ('en', 'OBJ'), ('van', 'OBJ'), ('het', 'OBJ'), ('verzoek', 'OBJ'), ('tot', 'OBJ'), ('ver', 'OBJ'), ('##lening', 'OBJ'), ('van', 'OBJ'), ('het', 'OBJ'), ('Nederlanders', 'OBJ'), ('##cha', 'OBJ'), ('##p', 'OBJ'), (',', 'O'), ('de', 'OBJ'), ('gevallen', 'OBJ'), ('en', 'OBJ'), ('de', 'OBJ'), ('mate', 'OBJ'), ('waarin', 'OBJ'), ('daarvan', 'OBJ'), ('ont', 'OBJ'), ('##heffing', 'OBJ'), ('kan', 'OBJ'), ('worden', 'OBJ'), ('verleend', 'OBJ'), ('en', 'OBJ'), ('de', 'OBJ'), ('wijze', 'OBJ'), ('waar', 'OBJ'), ('##op', 'OBJ'), ('het', 'OBJ'), ('moet', 'OBJ'), ('worden', 'OBJ'), ('voldaan', 'OBJ'), ('.', 'O'), ('[SEP]', 'O')]"
110-Wet_openbaarheid_van_bestuur,"Indien de bestuursrechter oordeelt dat het niet tijdig nemen van een besluit kennelijk het gevolg is van de wijze van indiening van het verzoek en nog geen besluit is bekendgemaakt ,  bepaalt de bestuursrechter ,  indien het verzoek hiertoe aanleiding geeft ,  in afwijking van  een langere termijn waarbinnen het bestuursorgaan alsnog een besluit bekendmaakt . ","[('[CLS]', 'O'), ('Indien', 'O'), ('de', 'O'), ('bestuursrecht', 'O'), ('##er', 'O'), ('oordeel', 'O'), ('##t', 'O'), ('dat', 'O'), ('het', 'O'), ('niet', 'O'), ('tijdig', 'O'), ('nemen', 'O'), ('van', 'O'), ('een', 'O'), ('besluit', 'O'), ('kennelijk', 'O'), ('het', 'O'), ('gevolg', 'O'), ('is', 'O'), ('van', 'O'), ('de', 'O'), ('wijze', 'O'), ('van', 'O'), ('indien', 'O'), ('##ing', 'O'), ('van', 'O'), ('het', 'O'), ('verzoek', 'O'), ('en', 'O'), ('nog', 'O'), ('geen', 'O'), ('besluit', 'O'), ('is', 'O'), ('bekendgemaakt', 'O'), (',', 'O'), ('bepaal', 'O'), ('##t', 'V'), ('de', 'ACTOR'), ('bestuursrecht', 'ACTOR'), ('##er', 'O'), (',', 'O'), ('indien', 'O'), ('het', 'O'), ('verzoek', 'O'), ('hier', 'O'), ('##toe', 'O'), ('aanleiding', 'O'), ('geeft', 'O'), (',', 'O'), ('in', 'O'), ('afwijking', 'O'), ('van', 'O'), ('een', 'OBJ'), ('langere', 'OBJ'), ('termijn', 'OBJ'), ('waar', 'OBJ'), ('##binnen', 'O'), ('het', 'OBJ'), ('bestuurs', 'O'), ('##orgaan', 'O'), ('als', 'O'), ('##n', 'O'), ('##og', 'O'), ('een', 'OBJ'), ('besluit', 'O'), ('bekend', 'O'), ('##maakt', 'O'), ('.', 'O'), ('[SEP]', 'O')]"
89-Rijkswet_op_het_Nederlanderschap,"Indien dit het geval is en ook aan de overige vereisten is voldaan ,  bevestigt zij schriftelijk de verkrijging van het Nederlanderschap . ","[('[CLS]', 'O'), ('Indien', 'O'), ('dit', 'O'), ('het', 'O'), ('geval', 'O'), ('is', 'O'), ('en', 'O'), ('ook', 'O'), ('aan', 'O'), ('de', 'O'), ('overige', 'O'), ('vereiste', 'O'), ('##n', 'O'), ('is', 'O'), ('voldaan', 'O'), (',', 'O'), ('bevestig', 'V'), ('##t', 'V'), ('zij', 'ACTOR'), ('schriftelijk', 'O'), ('de', 'OBJ'), ('ver', 'OBJ'), ('##krijg', 'OBJ'), ('##ing', 'OBJ'), ('van', 'OBJ'), ('het', 'OBJ'), ('Nederlanders', 'OBJ'), ('##cha', 'OBJ'), ('##p', 'OBJ'), ('.', 'O'), ('[SEP]', 'O')]"
82-Rijkswet_op_het_Nederlanderschap,"De in  ,  bedoelde bevestiging wordt geweigerd indien de vreemdeling als bedoeld in ","[('[CLS]', 'O'), ('De', 'OBJ'), ('in', 'OBJ'), (',', 'O'), ('bedoelde', 'OBJ'), ('bevestiging', 'O'), ('wordt', 'V'), ('geweigerd', 'O'), ('indien', 'O'), ('de', 'O'), ('vreemdeling', 'O'), ('als', 'O'), ('bedoeld', 'O'), ('in', 'O'), ('[SEP]', 'O')]"
246-Rijkswet_op_het_Nederlanderschap,Bij of krachtens algemene maatregel van rijksbestuur kunnen nadere regelen worden gesteld ter uitvoering van deze Rijkswet . ,"[('[CLS]', 'O'), ('Bij', 'O'), ('of', 'O'), ('krachten', 'O'), ('##s', 'O'), ('algemene', 'O'), ('maatregel', 'O'), ('van', 'O'), ('rijks', 'O'), ('##bestuur', 'O'), ('kunnen', 'V'), ('nadere', 'OBJ'), ('regelen', 'OBJ'), ('worden', 'V'), ('gesteld', 'V'), ('ter', 'OBJ'), ('uitvoering', 'OBJ'), ('van', 'OBJ'), ('deze', 'OBJ'), ('Rijks', 'OBJ'), ('##wet', 'OBJ'), ('.', 'O'), ('[SEP]', 'O')]"
29-Wet_openbaarheid_van_bestuur,In dat geval wordt tevens aan de derde de op hem betrekking hebbende informatie toegezonden . ,"[('[CLS]', 'O'), ('In', 'O'), ('dat', 'O'), ('geval', 'O'), ('wordt', 'V'), ('te', 'O'), ('##ven', 'O'), ('##s', 'O'), ('aan', 'REC'), ('de', 'REC'), ('derde', 'REC'), ('de', 'OBJ'), ('op', 'OBJ'), ('hem', 'OBJ'), ('betrekking', 'OBJ'), ('hebben', 'OBJ'), ('##de', 'OBJ'), ('informatie', 'OBJ'), ('toe', 'V'), ('##gezonden', 'V'), ('.', 'O'), ('[SEP]', 'O')]"
24-Wet_openbaarheid_van_bestuur,De beslissing op een verzoek om informatie wordt mondeling of schriftelijk genomen . ,"[('[CLS]', 'O'), ('De', 'OBJ'), ('beslissing', 'OBJ'), ('op', 'OBJ'), ('een', 'OBJ'), ('verzoek', 'OBJ'), ('om', 'OBJ'), ('informatie', 'OBJ'), ('wordt', 'V'), ('mondeling', 'O'), ('of', 'O'), ('schriftelijk', 'O'), ('genomen', 'V'), ('.', 'O'), ('[SEP]', 'O')]"
75-Rijkswet_op_het_Nederlanderschap,"Indien een persoon op wie de verklaring betrekking heeft ,  geen geslachtsnaam of voornaam heeft of indien de juiste spelling daarvan niet vaststaat ,  wordt deze in overleg met hem vastgesteld en in de bevestiging vermeld ;  zijn naam wordt daarin zonodig in de in het Koninkrijk gebruikelijke lettertekens overgebracht . ","[('[CLS]', 'O'), ('Indien', 'O'), ('een', 'O'), ('persoon', 'O'), ('op', 'O'), ('wie', 'O'), ('de', 'O'), ('verklaring', 'O'), ('betrekking', 'O'), ('heeft', 'O'), (',', 'O'), ('geen', 'O'), ('geslacht', 'O'), ('##snaam', 'O'), ('of', 'O'), ('voornaam', 'O'), ('heeft', 'O'), ('of', 'O'), ('indien', 'O'), ('de', 'O'), ('juiste', 'O'), ('spelling', 'O'), ('daarvan', 'O'), ('niet', 'O'), ('vast', 'O'), ('##staat', 'O'), (',', 'O'), ('wordt', 'O'), ('deze', 'OBJ'), ('in', 'O'), ('overleg', 'O'), ('met', 'O'), ('hem', 'O'), ('vastgesteld', 'O'), ('en', 'O'), ('in', 'O'), ('de', 'O'), ('bevestiging', 'O'), ('vermeld', 'O'), (';', 'O'), ('zijn', 'O'), ('naam', 'O'), ('wordt', 'O'), ('daarin', 'O'), ('zon', 'O'), ('##odi', 'O'), ('##g', 'O'), ('in', 'O'), ('de', 'O'), ('in', 'O'), ('het', 'O'), ('Koninkrijk', 'O'), ('gebruikelijke', 'O'), ('letter', 'O'), ('##teken', 'O'), ('##s', 'O'), ('overgebracht', 'O'), ('.', 'O'), ('[SEP]', 'O')]"
19-Rijkswet_op_het_Nederlanderschap,Tenzij anders bepaald kunnen zij daarin niet worden vertegenwoordigd . ,"[('[CLS]', 'O'), ('Tenzij', 'O'), ('anders', 'O'), ('bepaald', 'O'), ('kunnen', 'V'), ('zij', 'OBJ'), ('daarin', 'O'), ('niet', 'V'), ('worden', 'V'), ('vertegenwoordig', 'V'), ('##d', 'V'), ('.', 'O'), ('[SEP]', 'O')]"
73-Rijkswet_op_het_Nederlanderschap,"Zij weigert de bevestiging indien op grond van het gedrag van de persoon ,  die de verklaring betreft ,  ernstige vermoedens bestaan dat hij gevaar oplevert voor de openbare orde ,  de goede zeden of de veiligheid van het Koninkrijk ,  tenzij volkenrechtelijke verplichtingen zich daartegen verzetten . ","[('[CLS]', 'O'), ('Zij', 'ACTOR'), ('weigert', 'V'), ('de', 'OBJ'), ('bevestiging', 'OBJ'), ('indien', 'O'), ('op', 'O'), ('grond', 'O'), ('van', 'O'), ('het', 'O'), ('gedrag', 'O'), ('van', 'O'), ('de', 'O'), ('persoon', 'O'), (',', 'O'), ('die', 'O'), ('de', 'O'), ('verklaring', 'O'), ('betreft', 'O'), (',', 'O'), ('ernstige', 'O'), ('vermoeden', 'O'), ('##s', 'O'), ('bestaan', 'O'), ('dat', 'O'), ('hij', 'O'), ('gevaar', 'O'), ('op', 'O'), ('##levert', 'O'), ('voor', 'O'), ('de', 'O'), ('openbare', 'O'), ('orde', 'O'), (',', 'O'), ('de', 'O'), ('goede', 'O'), ('ze', 'O'), ('##den', 'O'), ('of', 'O'), ('de', 'O'), ('veiligheid', 'O'), ('van', 'O'), ('het', 'O'), ('Koninkrijk', 'O'), (',', 'O'), ('tenzij', 'O'), ('volken', 'O'), ('##rechtelijk', 'O'), ('##e', 'O'), ('verplichting', 'O'), ('##en', 'O'), ('zich', 'O'), ('daartegen', 'O'), ('verzetten', 'O'), ('.', 'O'), ('[SEP]', 'O')]"
93-Rijkswet_op_het_Nederlanderschap,"De beslistermijn als bedoeld in  ,  wordt met vier weken verlengd ,  indien de autoriteit Onze Minister verzoekt om advies ,  bedoeld in het vierde lid . ","[('[CLS]', 'O'), ('De', 'OBJ'), ('besliste', 'OBJ'), ('##r', 'OBJ'), ('##mijn', 'OBJ'), ('als', 'OBJ'), ('bedoeld', 'OBJ'), ('in', 'O'), (',', 'O'), ('wordt', 'O'), ('met', 'O'), ('vier', 'O'), ('weken', 'O'), ('verlengd', 'O'), (',', 'O'), ('indien', 'O'), ('de', 'O'), ('autoriteit', 'O'), ('Onze', 'O'), ('Minister', 'O'), ('verzoek', 'O'), ('##t', 'O'), ('om', 'O'), ('advies', 'O'), (',', 'O'), ('bedoeld', 'O'), ('in', 'O'), ('het', 'O'), ('vierde', 'O'), ('lid', 'O'), ('.', 'O'), ('[SEP]', 'O')]"
123-Rijkswet_op_het_Nederlanderschap,Beslissingen tot afwijzing of aanhouding van verzoeken tot verlening van het Nederlanderschap kunnen door Onze Minister worden genomen . ,"[('[CLS]', 'OBJ'), ('Bes', 'OBJ'), ('##liss', 'OBJ'), ('##ingen', 'OBJ'), ('tot', 'OBJ'), ('afwijzing', 'OBJ'), ('of', 'OBJ'), ('aanhouding', 'OBJ'), ('van', 'OBJ'), ('verzoeken', 'OBJ'), ('tot', 'OBJ'), ('ver', 'OBJ'), ('##lening', 'OBJ'), ('van', 'OBJ'), ('het', 'OBJ'), ('Nederlanders', 'OBJ'), ('##cha', 'OBJ'), ('##p', 'OBJ'), ('kunnen', 'V'), ('door', 'ACTOR'), ('Onze', 'ACTOR'), ('Minister', 'ACTOR'), ('worden', 'V'), ('genomen', 'V'), ('.', 'O'), ('[SEP]', 'O')]"
126-Rijkswet_op_het_Nederlanderschap,Het verzoek tot medeverlening wordt bij het verzoek tot verlening ingediend . ,"[('[CLS]', 'O'), ('Het', 'OBJ'), ('verzoek', 'OBJ'), ('tot', 'OBJ'), ('mede', 'OBJ'), ('##verlening', 'OBJ'), ('wordt', 'V'), ('bij', 'O'), ('het', 'O'), ('verzoek', 'O'), ('tot', 'O'), ('ver', 'O'), ('##lening', 'O'), ('ingediend', 'V'), ('.', 'O'), ('[SEP]', 'O')]"
130-Rijkswet_op_het_Nederlanderschap,Het besluit tot verlening wordt niet bekend gemaakt dan nadat de verklaring van verbondenheid daadwerkelijk is afgelegd . ,"[('[CLS]', 'O'), ('Het', 'OBJ'), ('besluit', 'OBJ'), ('tot', 'OBJ'), ('ver', 'OBJ'), ('##lening', 'OBJ'), ('wordt', 'V'), ('niet', 'V'), ('bekend', 'V'), ('gemaakt', 'V'), ('dan', 'O'), ('nadat', 'O'), ('de', 'O'), ('verklaring', 'O'), ('van', 'O'), ('verbonden', 'O'), ('##heid', 'O'), ('daadwerkelijk', 'O'), ('is', 'O'), ('afgelegd', 'O'), ('.', 'O'), ('[SEP]', 'O')]"
146-Rijkswet_op_het_Nederlanderschap,Bij algemene maatregel van rijksbestuur worden regelen gesteld betreffende het bewijs van toelating tot n van de landen van het Koninkrijk . ,"[('[CLS]', 'O'), ('Bij', 'O'), ('algemene', 'O'), ('maatregel', 'O'), ('van', 'O'), ('rijks', 'O'), ('##bestuur', 'O'), ('worden', 'V'), ('regelen', 'OBJ'), ('gesteld', 'V'), ('betreffende', 'OBJ'), ('het', 'OBJ'), ('bewijs', 'OBJ'), ('van', 'OBJ'), ('toelating', 'OBJ'), ('tot', 'OBJ'), ('n', 'OBJ'), ('van', 'OBJ'), ('de', 'OBJ'), ('landen', 'OBJ'), ('van', 'OBJ'), ('het', 'OBJ'), ('Koninkrijk', 'OBJ'), ('.', 'O'), ('[SEP]', 'O')]"
164-Rijkswet_op_het_Nederlanderschap,"Het verlies treedt evenmin in indien het Nederlanderschap ook kan worden ontleend aan artikel 3 ,  derde lid ,  of aan artikel 2 ,  onder a ,  van de Wet van 12 december 1892 op het Nederlanderschap en het ingezetenschap  ( Stb . ","[('[CLS]', 'O'), ('Het', 'ACTOR'), ('verlies', 'ACTOR'), ('tree', 'V'), ('##d', 'V'), ('##t', 'V'), ('evenmin', 'O'), ('in', 'V'), ('indien', 'O'), ('het', 'O'), ('Nederlanders', 'O'), ('##cha', 'O'), ('##p', 'O'), ('ook', 'O'), ('kan', 'O'), ('worden', 'O'), ('ontleend', 'O'), ('aan', 'O'), ('artikel', 'O'), ('3', 'O'), (',', 'O'), ('derde', 'O'), ('lid', 'O'), (',', 'O'), ('of', 'O'), ('aan', 'O'), ('artikel', 'O'), ('2', 'O'), (',', 'O'), ('onder', 'O'), ('a', 'O'), (',', 'O'), ('van', 'O'), ('de', 'O'), ('Wet', 'O'), ('van', 'O'), ('12', 'O'), ('december', 'O'), ('1892', 'O'), ('op', 'O'), ('het', 'O'), ('Nederlanders', 'O'), ('##cha', 'O'), ('##p', 'O'), ('en', 'O'), ('het', 'O'), ('ingezet', 'O'), ('##en', 'O'), ('##schap', 'O'), ('(', 'O'), ('St', 'O'), ('##b', 'O'), ('.', 'O'), ('[SEP]', 'O')]"
168-Rijkswet_op_het_Nederlanderschap,"De in het vierde lid bedoelde lijst wordt na vaststelling of wijziging toegezonden aan de Tweede Kamer der Staten - Generaal ,  aan de Staten van Aruba ,  aan die van Curaao en aan die van Sint Maarten en wordt gepubliceerd in de Staatscourant ,  in het Afkondigingsblad van Aruba ,  in het Publicatieblad van Curaao en in het Afkondigingsblad van Sint Maarten . ","[('[CLS]', 'O'), ('De', 'OBJ'), ('in', 'OBJ'), ('het', 'OBJ'), ('vierde', 'OBJ'), ('lid', 'OBJ'), ('bedoelde', 'OBJ'), ('lijst', 'OBJ'), ('wordt', 'V'), ('na', 'O'), ('vaststelling', 'O'), ('of', 'O'), ('wijziging', 'O'), ('toe', 'V'), ('##gezonden', 'V'), ('aan', 'REC'), ('de', 'REC'), ('Tweede', 'REC'), ('Kamer', 'REC'), ('de', 'REC'), ('##r', 'REC'), ('Staten', 'REC'), ('-', 'REC'), ('Generaal', 'REC'), (',', 'O'), ('aan', 'REC'), ('de', 'REC'), ('Staten', 'REC'), ('van', 'REC'), ('Aruba', 'REC'), (',', 'O'), ('aan', 'REC'), ('die', 'REC'), ('van', 'REC'), ('Cura', 'REC'), ('##a', 'REC'), ('##o', 'REC'), ('en', 'REC'), ('aan', 'REC'), ('die', 'REC'), ('van', 'REC'), ('Sint', 'REC'), ('Maarten', 'REC'), ('en', 'O'), ('wordt', 'O'), ('gepubliceerd', 'O'), ('in', 'O'), ('de', 'O'), ('Staats', 'O'), ('##cour', 'O'), ('##ant', 'O'), (',', 'O'), ('in', 'O'), ('het', 'O'), ('Af', 'O'), ('##kon', 'O'), ('##dig', 'O'), ('##ings', 'O'), ('##blad', 'O'), ('van', 'O'), ('Aruba', 'O'), (',', 'O'), ('in', 'O'), ('het', 'O'), ('Publicatie', 'O'), ('##blad', 'O'), ('van', 'O'), ('Cura', 'O'), ('##a', 'O'), ('##o', 'O'), ('en', 'O'), ('in', 'O'), ('het', 'O'), ('Af', 'O'), ('##kon', 'O'), ('##dig', 'O'), ('##ings', 'O'), ('##blad', 'O'), ('van', 'O'), ('Sint', 'O'), ('Maarten', 'O'), ('.', 'O'), ('[SEP]', 'O')]"
169-Rijkswet_op_het_Nederlanderschap,"Bij of krachtens algemene maatregel van rijksbestuur worden nadere regels gesteld omtrent de elementen die betrokken worden bij de belangenafweging inzake een beslissing omtrent intrekking van het Nederlanderschap op grond van het eerste ,  tweede ,  derde of vierde lid . ","[('[CLS]', 'O'), ('Bij', 'O'), ('of', 'O'), ('krachten', 'O'), ('##s', 'O'), ('algemene', 'O'), ('maatregel', 'O'), ('van', 'O'), ('rijks', 'O'), ('##bestuur', 'O'), ('worden', 'V'), ('nadere', 'OBJ'), ('regels', 'OBJ'), ('gesteld', 'V'), ('om', 'OBJ'), ('##trent', 'OBJ'), ('de', 'OBJ'), ('elementen', 'OBJ'), ('die', 'OBJ'), ('betrokken', 'OBJ'), ('worden', 'OBJ'), ('bij', 'OBJ'), ('de', 'OBJ'), ('belangen', 'OBJ'), ('##af', 'OBJ'), ('##weg', 'OBJ'), ('##ing', 'OBJ'), ('in', 'OBJ'), ('##zake', 'OBJ'), ('een', 'OBJ'), ('beslissing', 'OBJ'), ('om', 'OBJ'), ('##trent', 'OBJ'), ('in', 'OBJ'), ('##trekking', 'OBJ'), ('van', 'OBJ'), ('het', 'OBJ'), ('Nederlanders', 'OBJ'), ('##cha', 'OBJ'), ('##p', 'OBJ'), ('op', 'OBJ'), ('grond', 'OBJ'), ('van', 'OBJ'), ('het', 'OBJ'), ('eerste', 'OBJ'), (',', 'O'), ('tweede', 'OBJ'), (',', 'O'), ('derde', 'OBJ'), ('of', 'OBJ'), ('vierde', 'OBJ'), ('lid', 'OBJ'), ('.', 'O'), ('[SEP]', 'O')]"
228-Rijkswet_op_het_Nederlanderschap,"Onze Ministers van Justitie van Aruba ,  van Curaao en van Sint Maarten houden een openbaar register van de in het eerste lid bedoelde akten welke betrekking hebben op personen die in hun land woonachtig zijn . ","[('[CLS]', 'ACTOR'), ('Onze', 'ACTOR'), ('Minister', 'ACTOR'), ('##s', 'ACTOR'), ('van', 'ACTOR'), ('Justitie', 'ACTOR'), ('van', 'ACTOR'), ('Aruba', 'ACTOR'), (',', 'O'), ('van', 'ACTOR'), ('Cura', 'ACTOR'), ('##a', 'ACTOR'), ('##o', 'ACTOR'), ('en', 'ACTOR'), ('van', 'ACTOR'), ('Sint', 'ACTOR'), ('Maarten', 'ACTOR'), ('houden', 'V'), ('een', 'OBJ'), ('openbaar', 'OBJ'), ('register', 'OBJ'), ('van', 'OBJ'), ('de', 'OBJ'), ('in', 'OBJ'), ('het', 'OBJ'), ('eerste', 'OBJ'), ('lid', 'OBJ'), ('bedoelde', 'OBJ'), ('a', 'OBJ'), ('##kte', 'OBJ'), ('##n', 'OBJ'), ('welke', 'OBJ'), ('betrekking', 'OBJ'), ('hebben', 'OBJ'), ('op', 'OBJ'), ('personen', 'OBJ'), ('die', 'OBJ'), ('in', 'OBJ'), ('hun', 'OBJ'), ('land', 'OBJ'), ('woonachtig', 'OBJ'), ('zijn', 'OBJ'), ('.', 'O'), ('[SEP]', 'O')]"
242-Rijkswet_op_het_Nederlanderschap,"Voor zover deze Rijkswet niet op andere wijze in de toevoeging voorziet ,  voegt een bij algemene maatregel van rijksbestuur te bepalen bevoegd orgaan aan de vreemdeling een raadsman toe . ","[('[CLS]', 'O'), ('Voor', 'O'), ('zover', 'O'), ('deze', 'O'), ('Rijks', 'O'), ('##wet', 'O'), ('niet', 'O'), ('op', 'O'), ('andere', 'O'), ('wijze', 'O'), ('in', 'O'), ('de', 'O'), ('toevoeging', 'O'), ('voor', 'O'), ('##ziet', 'O'), (',', 'O'), ('voegt', 'V'), ('een', 'ACTOR'), ('bij', 'ACTOR'), ('algemene', 'ACTOR'), ('maatregel', 'ACTOR'), ('van', 'ACTOR'), ('rijks', 'ACTOR'), ('##bestuur', 'ACTOR'), ('te', 'ACTOR'), ('bepalen', 'ACTOR'), ('bevoegd', 'ACTOR'), ('orgaan', 'ACTOR'), ('aan', 'REC'), ('de', 'REC'), ('vreemdeling', 'REC'), ('een', 'OBJ'), ('raadsman', 'OBJ'), ('toe', 'V'), ('.', 'O'), ('[SEP]', 'O')]"
85-Wet_openbaarheid_van_bestuur,Informatie over persoonlijke beleidsopvattingen kan worden verstrekt in niet tot personen herleidbare vorm . ,"[('[CLS]', 'OBJ'), ('Informatie', 'OBJ'), ('over', 'OBJ'), ('persoonlijke', 'OBJ'), ('beleids', 'OBJ'), ('##op', 'OBJ'), ('##vat', 'OBJ'), ('##ting', 'OBJ'), ('##en', 'OBJ'), ('kan', 'V'), ('worden', 'V'), ('verstrekt', 'V'), ('in', 'O'), ('niet', 'O'), ('tot', 'O'), ('personen', 'O'), ('herleid', 'O'), ('##bare', 'O'), ('vorm', 'O'), ('.', 'O'), ('[SEP]', 'O')]"
70-Rijkswet_op_het_Nederlanderschap,Het besluit tot bevestiging wordt niet bekend gemaakt dan nadat de verklaring van verbondenheid daadwerkelijk is afgelegd . ,"[('[CLS]', 'O'), ('Het', 'OBJ'), ('besluit', 'OBJ'), ('tot', 'OBJ'), ('bevestiging', 'OBJ'), ('wordt', 'V'), ('niet', 'V'), ('bekend', 'V'), ('gemaakt', 'V'), ('dan', 'O'), ('nadat', 'O'), ('de', 'O'), ('verklaring', 'O'), ('van', 'O'), ('verbonden', 'O'), ('##heid', 'O'), ('daadwerkelijk', 'O'), ('is', 'O'), ('afgelegd', 'O'), ('.', 'O'), ('[SEP]', 'O')]"
80-Rijkswet_op_het_Nederlanderschap,Het besluit tot bevestiging wordt niet bekend gemaakt dan nadat de verklaring van verbondenheid daadwerkelijk is afgelegd . ,"[('[CLS]', 'O'), ('Het', 'OBJ'), ('besluit', 'OBJ'), ('tot', 'OBJ'), ('bevestiging', 'OBJ'), ('wordt', 'V'), ('niet', 'V'), ('bekend', 'V'), ('gemaakt', 'V'), ('dan', 'O'), ('nadat', 'O'), ('de', 'O'), ('verklaring', 'O'), ('van', 'O'), ('verbonden', 'O'), ('##heid', 'O'), ('daadwerkelijk', 'O'), ('is', 'O'), ('afgelegd', 'O'), ('.', 'O'), ('[SEP]', 'O')]"
95-Rijkswet_op_het_Nederlanderschap,"Ten aanzien van hen die hun hoofdverblijf hebben in Aruba ,  Curaao of Sint Maarten ,  adviseert Onze Minister van Justitie van Aruba ,  van Curaao ,  onderscheidenlijk van Sint Maarten ,  omtrent het verzoek . ","[('[CLS]', 'O'), ('Ten', 'O'), ('aanzien', 'O'), ('van', 'O'), ('hen', 'O'), ('die', 'O'), ('hun', 'O'), ('hoofd', 'O'), ('##verblijf', 'O'), ('hebben', 'O'), ('in', 'O'), ('Aruba', 'O'), (',', 'O'), ('Cura', 'O'), ('##a', 'O'), ('##o', 'O'), ('of', 'O'), ('Sint', 'O'), ('Maarten', 'O'), (',', 'O'), ('adviseer', 'O'), ('##t', 'O'), ('Onze', 'ACTOR'), ('Minister', 'ACTOR'), ('van', 'ACTOR'), ('Justitie', 'ACTOR'), ('van', 'ACTOR'), ('Aruba', 'ACTOR'), (',', 'O'), ('van', 'ACTOR'), ('Cura', 'ACTOR'), ('##a', 'ACTOR'), ('##o', 'ACTOR'), (',', 'O'), ('onderscheiden', 'ACTOR'), ('##lijk', 'ACTOR'), ('van', 'ACTOR'), ('Sint', 'ACTOR'), ('Maarten', 'O'), (',', 'O'), ('om', 'O'), ('##trent', 'O'), ('het', 'OBJ'), ('verzoek', 'O'), ('.', 'O'), ('[SEP]', 'O')]"
102-Rijkswet_op_het_Nederlanderschap,Het besluit tot verlening wordt niet bekend gemaakt dan nadat de verklaring daadwerkelijk is afgelegd . ,"[('[CLS]', 'O'), ('Het', 'OBJ'), ('besluit', 'OBJ'), ('tot', 'OBJ'), ('ver', 'OBJ'), ('##lening', 'OBJ'), ('wordt', 'V'), ('niet', 'V'), ('bekend', 'V'), ('gemaakt', 'V'), ('dan', 'O'), ('nadat', 'O'), ('de', 'O'), ('verklaring', 'O'), ('daadwerkelijk', 'O'), ('is', 'O'), ('afgelegd', 'O'), ('.', 'O'), ('[SEP]', 'O')]"
157-Rijkswet_op_het_Nederlanderschap,"Onze Minister kan in het belang van de nationale veiligheid het Nederlanderschap intrekken van een persoon die de leeftijd van zestien jaar heeft bereikt en die zich buiten het Koninkrijk bevindt ,  indien uit zijn gedragingen blijkt dat hij zich heeft aangesloten bij een organisatie die door Onze Minister ,  in overeenstemming met het gevoelen van de Rijksministerraad ,  is geplaatst op een lijst van organisaties die deelnemen aan een nationaal of internationaal gewapend conflict en een bedreiging vormen voor de nationale veiligheid . ","[('[CLS]', 'O'), ('Onze', 'ACTOR'), ('Minister', 'ACTOR'), ('kan', 'V'), ('in', 'O'), ('het', 'O'), ('belang', 'O'), ('van', 'O'), ('de', 'O'), ('nationale', 'O'), ('veiligheid', 'O'), ('het', 'OBJ'), ('Nederlanders', 'OBJ'), ('##cha', 'OBJ'), ('##p', 'OBJ'), ('in', 'V'), ('##trekken', 'V'), ('van', 'O'), ('een', 'O'), ('persoon', 'O'), ('die', 'O'), ('de', 'O'), ('leeftijd', 'O'), ('van', 'O'), ('zestien', 'O'), ('jaar', 'O'), ('heeft', 'O'), ('bereikt', 'O'), ('en', 'O'), ('die', 'O'), ('zich', 'O'), ('buiten', 'O'), ('het', 'O'), ('Koninkrijk', 'O'), ('bevind', 'O'), ('##t', 'O'), (',', 'O'), ('indien', 'O'), ('uit', 'O'), ('zijn', 'O'), ('gedrag', 'O'), ('##ingen', 'O'), ('blijkt', 'O'), ('dat', 'O'), ('hij', 'O'), ('zich', 'O'), ('heeft', 'O'), ('aangesloten', 'O'), ('bij', 'O'), ('een', 'O'), ('organisatie', 'O'), ('die', 'O'), ('door', 'O'), ('Onze', 'O'), ('Minister', 'O'), (',', 'O'), ('in', 'O'), ('overeenstemming', 'O'), ('met', 'O'), ('het', 'O'), ('gevoel', 'O'), ('##en', 'O'), ('van', 'O'), ('de', 'O'), ('Rijks', 'O'), ('##minister', 'O'), ('##raad', 'O'), (',', 'O'), ('is', 'O'), ('geplaatst', 'O'), ('op', 'O'), ('een', 'O'), ('lijst', 'O'), ('van', 'O'), ('organisaties', 'O'), ('die', 'O'), ('deelnemen', 'O'), ('aan', 'O'), ('een', 'O'), ('nationaal', 'O'), ('of', 'O'), ('internationaal', 'O'), ('gewapend', 'O'), ('conflict', 'O'), ('en', 'O'), ('een', 'O'), ('bedreiging', 'O'), ('vormen', 'O'), ('voor', 'O'), ('de', 'O'), ('nationale', 'O'), ('veiligheid', 'O'), ('.', 'O'), ('[SEP]', 'O')]"
166-Rijkswet_op_het_Nederlanderschap,Het Nederlanderschap wordt niet verloren dan krachtens een van de bepalingen van dit hoofdstuk . ,"[('[CLS]', 'O'), ('Het', 'OBJ'), ('Nederlanders', 'OBJ'), ('##cha', 'OBJ'), ('##p', 'OBJ'), ('wordt', 'V'), ('niet', 'V'), ('verloren', 'V'), ('dan', 'O'), ('krachten', 'O'), ('##s', 'O'), ('een', 'O'), ('van', 'O'), ('de', 'O'), ('bepaling', 'O'), ('##en', 'O'), ('van', 'O'), ('dit', 'O'), ('hoofdstuk', 'O'), ('.', 'O'), ('[SEP]', 'O')]"
221-Rijkswet_op_het_Nederlanderschap,De behandeling van de zaak wordt terstond hervat zodra het in de vorige leden bedoelde advies is ontvangen . ,"[('[CLS]', 'O'), ('De', 'OBJ'), ('behandeling', 'OBJ'), ('van', 'OBJ'), ('de', 'OBJ'), ('zaak', 'OBJ'), ('wordt', 'V'), ('terstond', 'O'), ('hervat', 'V'), ('zo', 'O'), ('##dra', 'O'), ('het', 'O'), ('in', 'O'), ('de', 'O'), ('vorige', 'O'), ('leden', 'O'), ('bedoelde', 'O'), ('advies', 'O'), ('is', 'O'), ('ontvangen', 'O'), ('.', 'O'), ('[SEP]', 'O')]"
274-Rijkswet_op_het_Nederlanderschap,Het besluit tot bevestiging wordt met betrekking tot hem niet bekend gemaakt dan nadat de verklaring van verbondenheid daadwerkelijk is afgelegd . ,"[('[CLS]', 'O'), ('Het', 'OBJ'), ('besluit', 'OBJ'), ('tot', 'OBJ'), ('bevestiging', 'OBJ'), ('wordt', 'V'), ('met', 'O'), ('betrekking', 'O'), ('tot', 'O'), ('hem', 'O'), ('niet', 'V'), ('bekend', 'V'), ('gemaakt', 'V'), ('dan', 'O'), ('nadat', 'O'), ('de', 'O'), ('verklaring', 'O'), ('van', 'O'), ('verbonden', 'O'), ('##heid', 'O'), ('daadwerkelijk', 'O'), ('is', 'O'), ('afgelegd', 'O'), ('.', 'O'), ('[SEP]', 'O')]"
27-Wet_openbaarheid_van_bestuur,De verzoeker wordt op deze mogelijkheid gewezen . ,"[('[CLS]', 'O'), ('De', 'REC'), ('verzoek', 'REC'), ('##er', 'REC'), ('wordt', 'V'), ('op', 'V'), ('deze', 'OBJ'), ('mogelijkheid', 'OBJ'), ('gewezen', 'V'), ('.', 'O'), ('[SEP]', 'O')]"
49-Wet_openbaarheid_van_bestuur,"Het bestuursorgaan dat het rechtstreeks aangaat ,  verschaft uit eigen beweging informatie over het beleid ,  de voorbereiding en de uitvoering daaronder begrepen ,  zodra dat in het belang is van een goede en democratische bestuursvoering . ","[('[CLS]', 'ACTOR'), ('Het', 'ACTOR'), ('bestuurs', 'ACTOR'), ('##orgaan', 'ACTOR'), ('dat', 'ACTOR'), ('het', 'ACTOR'), ('rechtstreeks', 'ACTOR'), ('aan', 'ACTOR'), ('##gaat', 'ACTOR'), (',', 'O'), ('verschaft', 'V'), ('uit', 'O'), ('eigen', 'O'), ('beweging', 'O'), ('informatie', 'OBJ'), ('over', 'OBJ'), ('het', 'OBJ'), ('beleid', 'OBJ'), (',', 'O'), ('de', 'OBJ'), ('voorbereiding', 'OBJ'), ('en', 'OBJ'), ('de', 'OBJ'), ('uitvoering', 'OBJ'), ('daaronder', 'OBJ'), ('be', 'O'), ('##grepen', 'O'), (',', 'O'), ('zo', 'O'), ('##dra', 'O'), ('dat', 'O'), ('in', 'O'), ('het', 'O'), ('belang', 'O'), ('is', 'O'), ('van', 'O'), ('een', 'O'), ('goede', 'O'), ('en', 'O'), ('democratische', 'O'), ('bestuurs', 'O'), ('##voering', 'O'), ('.', 'O'), ('[SEP]', 'O')]"
81-Wet_openbaarheid_van_bestuur,Over persoonlijke beleidsopvattingen kan met het oog op een goede en democratische bestuursvoering informatie worden verstrekt in niet tot personen herleidbare vorm . ,"[('[CLS]', 'O'), ('Over', 'O'), ('persoonlijke', 'O'), ('beleids', 'O'), ('##op', 'O'), ('##vat', 'O'), ('##ting', 'O'), ('##en', 'O'), ('kan', 'V'), ('met', 'O'), ('het', 'O'), ('oog', 'O'), ('op', 'O'), ('een', 'O'), ('goede', 'O'), ('en', 'O'), ('democratische', 'O'), ('bestuurs', 'O'), ('##voering', 'O'), ('informatie', 'OBJ'), ('worden', 'V'), ('verstrekt', 'V'), ('in', 'O'), ('niet', 'O'), ('tot', 'O'), ('personen', 'O'), ('herleid', 'O'), ('##bare', 'O'), ('vorm', 'O'), ('.', 'O'), ('[SEP]', 'O')]"
96-Wet_openbaarheid_van_bestuur,Bij of krachtens algemene maatregel van bestuur kunnen voor de centrale overheid regels worden gesteld met betrekking tot in rekening te brengen vergoedingen voor het ingevolge een verzoek om informatie vervaardigen van kopien van documenten en uittreksels of samenvattingen van de inhoud daarvan . ,"[('[CLS]', 'O'), ('Bij', 'O'), ('of', 'O'), ('krachten', 'O'), ('##s', 'O'), ('algemene', 'O'), ('maatregel', 'O'), ('van', 'O'), ('bestuur', 'O'), ('kunnen', 'V'), ('voor', 'REC'), ('de', 'REC'), ('centrale', 'REC'), ('overheid', 'REC'), ('regels', 'OBJ'), ('worden', 'V'), ('gesteld', 'V'), ('met', 'OBJ'), ('betrekking', 'OBJ'), ('tot', 'OBJ'), ('in', 'OBJ'), ('rekening', 'OBJ'), ('te', 'OBJ'), ('brengen', 'OBJ'), ('vergoeding', 'OBJ'), ('##en', 'OBJ'), ('voor', 'OBJ'), ('het', 'OBJ'), ('inge', 'OBJ'), ('##vol', 'OBJ'), ('##ge', 'OBJ'), ('een', 'OBJ'), ('verzoek', 'OBJ'), ('om', 'OBJ'), ('informatie', 'OBJ'), ('vervaardig', 'OBJ'), ('##en', 'OBJ'), ('van', 'OBJ'), ('kopie', 'OBJ'), ('##n', 'OBJ'), ('van', 'OBJ'), ('documenten', 'OBJ'), ('en', 'OBJ'), ('uit', 'OBJ'), ('##trek', 'OBJ'), ('##sels', 'OBJ'), ('of', 'OBJ'), ('samenvatting', 'OBJ'), ('##en', 'OBJ'), ('van', 'OBJ'), ('de', 'OBJ'), ('inhoud', 'OBJ'), ('daarvan', 'OBJ'), ('.', 'O'), ('[SEP]', 'O')]"
109-Wet_openbaarheid_van_bestuur,"In geval van een gegrond beroep tegen het niet tijdig nemen van een besluit op grond van deze wet of een beslissing op bezwaar tegen een dergelijk besluit waarbij nog geen besluit is bekendgemaakt ,  bepaalt de bestuursrechter ,  indien de omvang van het verzoek hiertoe aanleiding geeft ,  in afwijking van  de termijn waarbinnen het bestuursorgaan alsnog een besluit bekendmaakt . ","[('[CLS]', 'O'), ('In', 'O'), ('geval', 'O'), ('van', 'O'), ('een', 'O'), ('gegrond', 'O'), ('beroep', 'O'), ('tegen', 'O'), ('het', 'O'), ('niet', 'O'), ('tijdig', 'O'), ('nemen', 'O'), ('van', 'O'), ('een', 'O'), ('besluit', 'O'), ('op', 'O'), ('grond', 'O'), ('van', 'O'), ('deze', 'O'), ('wet', 'O'), ('of', 'O'), ('een', 'O'), ('beslissing', 'O'), ('op', 'O'), ('bezwaar', 'O'), ('tegen', 'O'), ('een', 'O'), ('dergelijk', 'O'), ('besluit', 'O'), ('waarbij', 'O'), ('nog', 'O'), ('geen', 'O'), ('besluit', 'O'), ('is', 'O'), ('bekendgemaakt', 'O'), (',', 'O'), ('bepaal', 'O'), ('##t', 'V'), ('de', 'ACTOR'), ('bestuursrecht', 'ACTOR'), ('##er', 'O'), (',', 'O'), ('indien', 'O'), ('de', 'O'), ('omvang', 'O'), ('van', 'O'), ('het', 'O'), ('verzoek', 'O'), ('hier', 'O'), ('##toe', 'O'), ('aanleiding', 'O'), ('geeft', 'O'), (',', 'O'), ('in', 'O'), ('afwijking', 'O'), ('van', 'O'), ('de', 'O'), ('termijn', 'O'), ('waar', 'O'), ('##binnen', 'O'), ('het', 'O'), ('bestuurs', 'O'), ('##orgaan', 'O'), ('als', 'O'), ('##n', 'O'), ('##og', 'O'), ('een', 'O'), ('besluit', 'O'), ('bekend', 'O'), ('##maakt', 'O'), ('.', 'O'), ('[SEP]', 'O')]"
14-Rijkswet_op_het_Nederlanderschap,"Tenzij anders bepaald ,  worden verklaringen en verzoeken van minderjarigen door hun wettelijke vertegenwoordigers afgelegd en ingediend . ","[('[CLS]', 'O'), ('Tenzij', 'O'), ('anders', 'O'), ('bepaald', 'O'), (',', 'O'), ('worden', 'V'), ('verklaringen', 'OBJ'), ('en', 'OBJ'), ('verzoeken', 'OBJ'), ('van', 'OBJ'), ('minderjarige', 'OBJ'), ('##n', 'OBJ'), ('door', 'ACTOR'), ('hun', 'ACTOR'), ('wettelijk', 'ACTOR'), ('##e', 'ACTOR'), ('vertegenwoordig', 'ACTOR'), ('##ers', 'ACTOR'), ('afgelegd', 'V'), ('en', 'V'), ('ingediend', 'V'), ('.', 'O'), ('[SEP]', 'O')]"
25-Rijkswet_op_het_Nederlanderschap,Betreft het een buitenlandse rechterlijke uitspraak dan verkrijgt het kind het Nederlanderschap op de dag waarop deze uitspraak kracht van gewijsde heeft gekregen . ,"[('[CLS]', 'O'), ('Bet', 'O'), ('##r', 'O'), ('##eft', 'O'), ('het', 'O'), ('een', 'O'), ('buitenlands', 'O'), ('##e', 'O'), ('rechterlijk', 'O'), ('##e', 'O'), ('uitspraak', 'O'), ('dan', 'O'), ('ver', 'V'), ('##krijg', 'V'), ('##t', 'V'), ('het', 'ACTOR'), ('kind', 'ACTOR'), ('het', 'OBJ'), ('Nederlanders', 'OBJ'), ('##cha', 'OBJ'), ('##p', 'OBJ'), ('op', 'O'), ('de', 'O'), ('dag', 'O'), ('waar', 'O'), ('##op', 'O'), ('deze', 'O'), ('uitspraak', 'O'), ('kracht', 'O'), ('van', 'O'), ('gew', 'O'), ('##ijs', 'O'), ('##de', 'O'), ('heeft', 'O'), ('gekregen', 'O'), ('.', 'O'), ('[SEP]', 'O')]"
127-Rijkswet_op_het_Nederlanderschap,"Een verzoek van de vader of moeder tot medeverlening van het Nederlanderschap aan een kind beneden de leeftijd van 16 jaar wordt ingewilligd indien het kind sedert het tijdstip van het verzoek in het Europese deel van Nederland ,  Aruba ,  Curaao ,  Sint Maarten of de openbare lichamen Bonaire ,  Sint Eustatius en Saba ,  toelating voor onbepaalde tijd en hoofdverblijf heeft . ","[('[CLS]', 'OBJ'), ('Een', 'OBJ'), ('verzoek', 'OBJ'), ('van', 'OBJ'), ('de', 'OBJ'), ('vader', 'OBJ'), ('of', 'OBJ'), ('moeder', 'OBJ'), ('tot', 'OBJ'), ('mede', 'OBJ'), ('##verlening', 'OBJ'), ('van', 'OBJ'), ('het', 'OBJ'), ('Nederlanders', 'OBJ'), ('##cha', 'OBJ'), ('##p', 'OBJ'), ('aan', 'OBJ'), ('een', 'OBJ'), ('kind', 'OBJ'), ('beneden', 'OBJ'), ('de', 'OBJ'), ('leeftijd', 'OBJ'), ('van', 'OBJ'), ('16', 'OBJ'), ('jaar', 'OBJ'), ('wordt', 'V'), ('inge', 'V'), ('##willig', 'V'), ('##d', 'V'), ('indien', 'O'), ('het', 'O'), ('kind', 'O'), ('sedert', 'O'), ('het', 'O'), ('tijdstip', 'O'), ('van', 'O'), ('het', 'O'), ('verzoek', 'O'), ('in', 'O'), ('het', 'O'), ('Europese', 'O'), ('deel', 'O'), ('van', 'O'), ('Nederland', 'O'), (',', 'O'), ('Aruba', 'O'), (',', 'O'), ('Cura', 'O'), ('##a', 'O'), ('##o', 'O'), (',', 'O'), ('Sint', 'O'), ('Maarten', 'O'), ('of', 'O'), ('de', 'O'), ('openbare', 'O'), ('li', 'O'), ('##cha', 'O'), ('##men', 'O'), ('Bon', 'O'), ('##aire', 'O'), (',', 'O'), ('Sint', 'O'), ('Eu', 'O'), ('##sta', 'O'), ('##tius', 'O'), ('en', 'O'), ('Saba', 'O'), (',', 'O'), ('toelating', 'O'), ('voor', 'O'), ('onbepaald', 'O'), ('##e', 'O'), ('tijd', 'O'), ('en', 'O'), ('hoofd', 'O'), ('##verblijf', 'O'), ('heeft', 'O'), ('.', 'O'), ('[SEP]', 'O')]"
136-Rijkswet_op_het_Nederlanderschap,Het besluit tot verlening wordt niet bekend gemaakt dan nadat de verklaring van verbondenheid daadwerkelijk is afgelegd . ,"[('[CLS]', 'O'), ('Het', 'OBJ'), ('besluit', 'OBJ'), ('tot', 'OBJ'), ('ver', 'OBJ'), ('##lening', 'OBJ'), ('wordt', 'V'), ('niet', 'V'), ('bekend', 'V'), ('gemaakt', 'V'), ('dan', 'O'), ('nadat', 'O'), ('de', 'O'), ('verklaring', 'O'), ('van', 'O'), ('verbonden', 'O'), ('##heid', 'O'), ('daadwerkelijk', 'O'), ('is', 'O'), ('afgelegd', 'O'), ('.', 'O'), ('[SEP]', 'O')]"
144-Rijkswet_op_het_Nederlanderschap,"De naam van de verzoeker wordt zonodig in de in het Koninkrijk gebruikelijke lettertekens overgebracht en kan ,  indien dit voor de inburgering van belang is ,  met toestemming van de verzoeker bij het besluit tot verlening van het Nederlanderschap worden gewijzigd . ","[('[CLS]', 'O'), ('De', 'OBJ'), ('naam', 'OBJ'), ('van', 'OBJ'), ('de', 'OBJ'), ('verzoek', 'OBJ'), ('##er', 'OBJ'), ('wordt', 'V'), ('zon', 'O'), ('##odi', 'O'), ('##g', 'O'), ('in', 'O'), ('de', 'O'), ('in', 'O'), ('het', 'O'), ('Koninkrijk', 'O'), ('gebruikelijke', 'O'), ('letter', 'O'), ('##teken', 'O'), ('##s', 'O'), ('overgebracht', 'V'), ('en', 'O'), ('kan', 'V'), (',', 'O'), ('indien', 'O'), ('dit', 'O'), ('voor', 'O'), ('de', 'O'), ('inburgering', 'O'), ('van', 'O'), ('belang', 'O'), ('is', 'O'), (',', 'O'), ('met', 'O'), ('toestemming', 'O'), ('van', 'O'), ('de', 'O'), ('verzoek', 'O'), ('##er', 'O'), ('bij', 'O'), ('het', 'O'), ('besluit', 'O'), ('tot', 'O'), ('ver', 'O'), ('##lening', 'O'), ('van', 'O'), ('het', 'O'), ('Nederlanders', 'O'), ('##cha', 'O'), ('##p', 'O'), ('worden', 'V'), ('gewijzigd', 'O'), ('.', 'O'), ('[SEP]', 'O')]"
147-Rijkswet_op_het_Nederlanderschap,"Onze Minister kan de verkrijging of verlening van het Nederlanderschap intrekken ,  indien zij berust op een door de betrokken persoon gegeven valse verklaring of bedrog ,  dan wel op het verzwijgen van enig voor de verkrijging of verlening relevant feit . ","[('[CLS]', 'ACTOR'), ('Onze', 'ACTOR'), ('Minister', 'ACTOR'), ('kan', 'V'), ('de', 'OBJ'), ('ver', 'OBJ'), ('##krijg', 'OBJ'), ('##ing', 'OBJ'), ('of', 'OBJ'), ('ver', 'OBJ'), ('##lening', 'OBJ'), ('van', 'OBJ'), ('het', 'OBJ'), ('Nederlanders', 'OBJ'), ('##cha', 'OBJ'), ('##p', 'OBJ'), ('in', 'V'), ('##trekken', 'V'), (',', 'O'), ('indien', 'O'), ('zij', 'O'), ('berust', 'O'), ('op', 'O'), ('een', 'O'), ('door', 'O'), ('de', 'O'), ('betrokken', 'O'), ('persoon', 'O'), ('gegeven', 'O'), ('valse', 'O'), ('verklaring', 'O'), ('of', 'O'), ('bedrog', 'O'), (',', 'O'), ('dan', 'O'), ('wel', 'O'), ('op', 'O'), ('het', 'O'), ('verzwijg', 'O'), ('##en', 'O'), ('van', 'O'), ('enig', 'O'), ('voor', 'O'), ('de', 'O'), ('ver', 'O'), ('##krijg', 'O'), ('##ing', 'O'), ('of', 'O'), ('ver', 'O'), ('##lening', 'O'), ('relevant', 'O'), ('feit', 'O'), ('.', 'O'), ('[SEP]', 'O')]"
158-Rijkswet_op_het_Nederlanderschap,"De persoon die de Nederlandse nationaliteit heeft verloren op grond van het tweede ,  derde of vierde lid kan de Nederlandse nationaliteit niet herkrijgen . ","[('[CLS]', 'ACTOR'), ('De', 'ACTOR'), ('persoon', 'ACTOR'), ('die', 'ACTOR'), ('de', 'ACTOR'), ('Nederlandse', 'ACTOR'), ('nationaliteit', 'ACTOR'), ('heeft', 'ACTOR'), ('verloren', 'ACTOR'), ('op', 'ACTOR'), ('grond', 'ACTOR'), ('van', 'ACTOR'), ('het', 'ACTOR'), ('tweede', 'ACTOR'), (',', 'O'), ('derde', 'ACTOR'), ('of', 'ACTOR'), ('vierde', 'ACTOR'), ('lid', 'ACTOR'), ('kan', 'V'), ('de', 'OBJ'), ('Nederlandse', 'OBJ'), ('nationaliteit', 'OBJ'), ('niet', 'V'), ('her', 'V'), ('##krijg', 'V'), ('##en', 'V'), ('.', 'O'), ('[SEP]', 'O')]"
16-Wet_openbaarheid_van_bestuur,"Het bestuursorgaan draagt er zo veel mogelijk zorg voor dat de informatie die het overeenkomstig deze wet verstrekt ,  actueel ,  nauwkeurig en vergelijkbaar is . ","[('[CLS]', 'OBJ'), ('Het', 'ACTOR'), ('bestuurs', 'ACTOR'), ('##orgaan', 'ACTOR'), ('draagt', 'V'), ('er', 'O'), ('zo', 'O'), ('veel', 'O'), ('mogelijk', 'O'), ('zorg', 'V'), ('voor', 'V'), ('dat', 'OBJ'), ('de', 'OBJ'), ('informatie', 'OBJ'), ('die', 'OBJ'), ('het', 'OBJ'), ('overeenkomstig', 'OBJ'), ('deze', 'OBJ'), ('wet', 'OBJ'), ('verstrekt', 'OBJ'), (',', 'O'), ('actueel', 'OBJ'), (',', 'O'), ('nauwkeurig', 'OBJ'), ('en', 'OBJ'), ('vergelijkbaar', 'OBJ'), ('is', 'OBJ'), ('.', 'O'), ('[SEP]', 'O')]"
35-Wet_openbaarheid_van_bestuur,"Indien het bestuursorgaan heeft besloten informatie te verstrekken ,  wordt de informatie verstrekt tegelijk met de bekendmaking van het besluit ,  tenzij naar verwachting een belanghebbende bezwaar daar tegen heeft ,  in welk geval de informatie niet eerder wordt verstrekt dan twee weken nadat de beslissing is bekendgemaakt . ","[('[CLS]', 'O'), ('Indien', 'O'), ('het', 'O'), ('bestuurs', 'O'), ('##orgaan', 'O'), ('heeft', 'O'), ('besloten', 'O'), ('informatie', 'O'), ('te', 'O'), ('verstrekken', 'O'), (',', 'O'), ('wordt', 'V'), ('de', 'OBJ'), ('informatie', 'OBJ'), ('verstrekt', 'V'), ('tegelijk', 'O'), ('met', 'O'), ('de', 'O'), ('bekendmaking', 'O'), ('van', 'O'), ('het', 'O'), ('besluit', 'O'), (',', 'O'), ('tenzij', 'O'), ('naar', 'O'), ('verwachting', 'O'), ('een', 'O'), ('belanghebbende', 'O'), ('bezwaar', 'O'), ('daar', 'O'), ('tegen', 'O'), ('heeft', 'O'), (',', 'O'), ('in', 'O'), ('welk', 'O'), ('geval', 'O'), ('de', 'O'), ('informatie', 'O'), ('niet', 'O'), ('eerder', 'O'), ('wordt', 'O'), ('verstrekt', 'O'), ('dan', 'O'), ('twee', 'O'), ('weken', 'O'), ('nadat', 'O'), ('de', 'O'), ('beslissing', 'O'), ('is', 'O'), ('bekendgemaakt', 'O'), ('.', 'O'), ('[SEP]', 'O')]"
90-Rijkswet_op_het_Nederlanderschap,De autoriteit vraagt advies aan Onze Minister indien de vreemdeling stelt dat afstand van zijn andere nationaliteit redelijkerwijs niet kan worden verlangd . ,"[('[CLS]', 'O'), ('De', 'ACTOR'), ('autoriteit', 'ACTOR'), ('vraagt', 'V'), ('advies', 'OBJ'), ('aan', 'REC'), ('Onze', 'REC'), ('Minister', 'REC'), ('indien', 'O'), ('de', 'O'), ('vreemdeling', 'O'), ('stelt', 'O'), ('dat', 'O'), ('afstand', 'O'), ('van', 'O'), ('zijn', 'O'), ('andere', 'O'), ('nationaliteit', 'O'), ('redelijke', 'O'), ('##r', 'O'), ('##wijs', 'O'), ('niet', 'O'), ('kan', 'O'), ('worden', 'O'), ('verlangd', 'O'), ('.', 'O'), ('[SEP]', 'O')]"
28-Wet_openbaarheid_van_bestuur,De beslissing wordt eveneens schriftelijk genomen indien het verzoek om informatie een derde betreft en deze daarom heeft verzocht . ,"[('[CLS]', 'O'), ('De', 'OBJ'), ('beslissing', 'OBJ'), ('wordt', 'V'), ('even', 'O'), ('##eens', 'O'), ('schriftelijk', 'O'), ('genomen', 'V'), ('indien', 'O'), ('het', 'O'), ('verzoek', 'O'), ('om', 'O'), ('informatie', 'O'), ('een', 'O'), ('derde', 'O'), ('betreft', 'O'), ('en', 'O'), ('deze', 'O'), ('daarom', 'O'), ('heeft', 'O'), ('verzocht', 'O'), ('.', 'O'), ('[SEP]', 'O')]"
236-Rijkswet_op_het_Nederlanderschap,"Er wordt door de griffier van de ingevolge het eerste lid bevoegde rechtbank ,  door de griffier van het Gerecht van eerste aanleg van het Gemeenschappelijk Hof van Justitie ,  door de griffier van het Gemeenschappelijk Hof van Justitie en door de griffier van de Afdeling bestuursrechtspraak van de Raad van State geen griffierecht geheven . ","[('[CLS]', 'ACTOR'), ('Er', 'O'), ('wordt', 'V'), ('door', 'ACTOR'), ('de', 'ACTOR'), ('griffier', 'ACTOR'), ('van', 'ACTOR'), ('de', 'ACTOR'), ('inge', 'ACTOR'), ('##vol', 'ACTOR'), ('##ge', 'ACTOR'), ('het', 'ACTOR'), ('eerste', 'ACTOR'), ('lid', 'ACTOR'), ('bevoegde', 'ACTOR'), ('rechtbank', 'ACTOR'), (',', 'O'), ('door', 'ACTOR'), ('de', 'ACTOR'), ('griffier', 'ACTOR'), ('van', 'ACTOR'), ('het', 'ACTOR'), ('Ger', 'ACTOR'), ('##echt', 'ACTOR'), ('van', 'ACTOR'), ('eerste', 'ACTOR'), ('aanleg', 'ACTOR'), ('van', 'ACTOR'), ('het', 'ACTOR'), ('Gemeenschap', 'ACTOR'), ('##pel', 'ACTOR'), ('##ijk', 'ACTOR'), ('Hof', 'ACTOR'), ('van', 'ACTOR'), ('Justitie', 'ACTOR'), (',', 'O'), ('door', 'ACTOR'), ('de', 'ACTOR'), ('griffier', 'ACTOR'), ('van', 'ACTOR'), ('het', 'ACTOR'), ('Gemeenschap', 'ACTOR'), ('##pel', 'ACTOR'), ('##ijk', 'ACTOR'), ('Hof', 'ACTOR'), ('van', 'ACTOR'), ('Justitie', 'ACTOR'), ('en', 'ACTOR'), ('door', 'ACTOR'), ('de', 'ACTOR'), ('griffier', 'ACTOR'), ('van', 'ACTOR'), ('de', 'ACTOR'), ('Afdeling', 'ACTOR'), ('bestuursrecht', 'ACTOR'), ('##spraak', 'ACTOR'), ('van', 'ACTOR'), ('de', 'ACTOR'), ('Raad', 'ACTOR'), ('van', 'ACTOR'), ('State', 'ACTOR'), ('geen', 'OBJ'), ('griffier', 'OBJ'), ('##echt', 'OBJ'), ('ge', 'V'), ('##he', 'V'), ('##ven', 'V'), ('.', 'O'), ('[SEP]', 'O')]"
