{
  "builder_name": null,
  "citation": "",
  "config_name": null,
  "dataset_size": null,
  "description": "",
  "download_checksums": null,
  "download_size": null,
  "features": {
    "__index_level_0__": {
      "dtype": "int64",
      "id": null,
      "_type": "Value"
    },
    "attention_mask": {
      "feature": {
        "dtype": "int8",
        "id": null,
        "_type": "Value"
      },
      "length": -1,
      "id": null,
      "_type": "Sequence"
    },
    "input_ids": {
      "feature": {
        "dtype": "int32",
        "id": null,
        "_type": "Value"
      },
      "length": -1,
      "id": null,
      "_type": "Sequence"
    },
    "labels": {
      "feature": {
        "dtype": "int64",
        "id": null,
        "_type": "Value"
      },
      "length": -1,
      "id": null,
      "_type": "Sequence"
    },
    "sentence_id": {
      "dtype": "string",
      "id": null,
      "_type": "Value"
    },
    "srl_tags": {
      "feature": {
        "dtype": "int64",
        "id": null,
        "_type": "Value"
      },
      "length": -1,
      "id": null,
      "_type": "Sequence"
    },
    "srl_tags_name": {
      "feature": {
        "dtype": "string",
        "id": null,
        "_type": "Value"
      },
      "length": -1,
      "id": null,
      "_type": "Sequence"
    },
    "token_type_ids": {
      "feature": {
        "dtype": "int8",
        "id": null,
        "_type": "Value"
      },
      "length": -1,
      "id": null,
      "_type": "Sequence"
    },
    "tokens": {
      "feature": {
        "dtype": "string",
        "id": null,
        "_type": "Value"
      },
      "length": -1,
      "id": null,
      "_type": "Sequence"
    }
  },
  "homepage": "",
  "license": "",
  "post_processed": null,
  "post_processing_size": null,
  "size_in_bytes": null,
  "splits": null,
  "supervised_keys": null,
  "task_templates": null,
  "version": null
}